ETC1010 Assignment 3
…
dev site: development site;

o res: other residential.

Distance: distance from CBD

Bedroom2: number of bedrooms

Bathroom: number of bathrooms

Focus <- subset(houses, select = c(Price, Rooms, Type, Distance, Bedroom2, Bathroom))
Focus

## # A tibble: 34,857 x 6
##      Price Rooms Type  Distance Bedroom2 Bathroom
##      <int> <int> <chr>    <dbl>    <int>    <int>
##  1      NA     2 h         2.50        2        1
##  2 1480000     2 h         2.50        2        1
##  3 1035000     2 h         2.50        2        1
##  4      NA     3 u         2.50        3        2
##  5 1465000     3 h         2.50        3        2
##  6  850000     3 h         2.50        3        2
##  7 1600000     4 h         2.50        3        1
##  8      NA     4 h         2.50        3        2
##  9      NA     2 h         2.50        4        1
## 10      NA     2 h         2.50        3        2
## # ... with 34,847 more rows
…
Plots summarising the relationship between price

# Filtering data for necessary variables only
Focus_complete <- Focus_shadow %>%
  select(Price, Rooms, Type, Distance, Bedroom2, Bathroom)
Focus_complete

## # A tibble: 27,247 x 6
##      Price Rooms Type  Distance Bedroom2 Bathroom
##      <int> <int> <chr>    <dbl>    <dbl>    <dbl>
##  1 1480000     2 h         2.50       2.       1.
##  2 1035000     2 h         2.50       2.       1.
##  3 1465000     3 h         2.50       3.       2.
##  4  850000     3 h         2.50       3.       2.
##  5 1600000     4 h         2.50       3.       1.
##  6  941000     2 h         2.50       2.       1.
##  7 1876000     3 h         2.50       4.       2.
##  8 1636000     2 h         2.50       2.       1.
##  9 1000000     3 h         2.50       3.       2.
## 10 1097000     2 h         2.50       3.       1.
## # ... with 27,237 more rows
…
