Assignment3_final
…
houses_shadow <- bind_shadow(houses) %>%
  arrange(Price, Rooms, Type, Distance, Bedroom2, Bathroom) %>%
  mutate(Price = houses_impute$data[,1],
         Distance = houses_impute$data[,2],
         Bedroom2 = houses_impute$data[,3],
         Bathroom = houses_impute$data[,4])
houses_shadow

## # A tibble: 34,857 x 12
##     Price Rooms  Type Distance Bedroom2 Bathroom Price_NA Rooms_NA Type_NA
##     <dbl> <int> <chr>    <dbl>    <dbl>    <dbl>   <fctr>   <fctr>  <fctr>
##  1  85000     1     u      6.4      1.0        1      !NA      !NA     !NA
##  2 112000     1     u      8.4      2.5        1      !NA      !NA     !NA
##  3 121000     1     u      1.3      2.5        1      !NA      !NA     !NA
##  4 131000     4     h      8.9      4.0        1      !NA      !NA     !NA
##  5 145000     1     u     13.9      2.0        1      !NA      !NA     !NA
##  6 145000     4     h      7.8      3.0        1      !NA      !NA     !NA
##  7 160000     1     u      4.6      1.0        1      !NA      !NA     !NA
##  8 170000     1     u      5.1      1.0        1      !NA      !NA     !NA
##  9 170000     1     u      5.2      1.0        1      !NA      !NA     !NA
## 10 185000     1     u      8.2      1.0        1      !NA      !NA     !NA
## # ... with 34,847 more rows, and 3 more variables: Distance_NA <fctr>,
## #   Bedroom2_NA <fctr>, Bathroom_NA <fctr>
…
