ETC1010: Data Modelling and Computing
…
walk <- walk_all %>% filter(Sensor == "Melbourne Central")

write_csv(walk, path = "data/walk_2018.csv")
```

```r
walk <- readr::read_csv("data/walk_2018.csv")
walk
```

```
## # A tibble: 8,760 x 5
##    Sensor            Date_Time           Date        Time Count
##    <chr>             <dttm>              <date>     <dbl> <dbl>
##  1 Melbourne Central 2017-12-31 13:00:00 2018-01-01     0  2996
##  2 Melbourne Central 2017-12-31 14:00:00 2018-01-01     1  3481
##  3 Melbourne Central 2017-12-31 15:00:00 2018-01-01     2  1721
##  4 Melbourne Central 2017-12-31 16:00:00 2018-01-01     3  1056
##  5 Melbourne Central 2017-12-31 17:00:00 2018-01-01     4   417
##  6 Melbourne Central 2017-12-31 18:00:00 2018-01-01     5   222
##  7 Melbourne Central 2017-12-31 19:00:00 2018-01-01     6   110
##  8 Melbourne Central 2017-12-31 20:00:00 2018-01-01     7   180
##  9 Melbourne Central 2017-12-31 21:00:00 2018-01-01     8   205
## 10 Melbourne Central 2017-12-31 22:00:00 2018-01-01     9   326
## # … with 8,750 more rows
```
…
---
class: bg-main1

# What format is walk in?

```r
walk
```

```
## # A tibble: 8,760 x 5
##    Sensor            Date_Time           Date        Time Count
##    <chr>             <dttm>              <date>     <dbl> <dbl>
##  1 Melbourne Central 2017-12-31 13:00:00 2018-01-01     0  2996
##  2 Melbourne Central 2017-12-31 14:00:00 2018-01-01     1  3481
##  3 Melbourne Central 2017-12-31 15:00:00 2018-01-01     2  1721
##  4 Melbourne Central 2017-12-31 16:00:00 2018-01-01     3  1056
##  5 Melbourne Central 2017-12-31 17:00:00 2018-01-01     4   417
##  6 Melbourne Central 2017-12-31 18:00:00 2018-01-01     5   222
##  7 Melbourne Central 2017-12-31 19:00:00 2018-01-01     6   110
##  8 Melbourne Central 2017-12-31 20:00:00 2018-01-01     7   180
##  9 Melbourne Central 2017-12-31 21:00:00 2018-01-01     8   205
## 10 Melbourne Central 2017-12-31 22:00:00 2018-01-01     9   326
## # … with 8,750 more rows
```

---
class: bg-main1

# Create variables with these different temporal components. 

```r
walk_tidy <- walk %>%
  mutate(month = month(Date,  label = TRUE, abbr = TRUE), 
         wday = wday(Date, label = TRUE, abbr = TRUE, week_start = 1))
walk_tidy
```

```
## # A tibble: 8,760 x 7
##    Sensor            Date_Time           Date        Time Count month wday 
##    <chr>             <dttm>              <date>     <dbl> <dbl> <ord> <ord>
##  1 Melbourne Central 2017-12-31 13:00:00 2018-01-01     0  2996 Jan   Mon  
##  2 Melbourne Central 2017-12-31 14:00:00 2018-01-01     1  3481 Jan   Mon  
##  3 Melbourne Central 2017-12-31 15:00:00 2018-01-01     2  1721 Jan   Mon  
##  4 Melbourne Central 2017-12-31 16:00:00 2018-01-01     3  1056 Jan   Mon  
##  5 Melbourne Central 2017-12-31 17:00:00 2018-01-01     4   417 Jan   Mon  
##  6 Melbourne Central 2017-12-31 18:00:00 2018-01-01     5   222 Jan   Mon  
##  7 Melbourne Central 2017-12-31 19:00:00 2018-01-01     6   110 Jan   Mon  
##  8 Melbourne Central 2017-12-31 20:00:00 2018-01-01     7   180 Jan   Mon  
##  9 Melbourne Central 2017-12-31 21:00:00 2018-01-01     8   205 Jan   Mon  
## 10 Melbourne Central 2017-12-31 22:00:00 2018-01-01     9   326 Jan   Mon  
## # … with 8,750 more rows
```
…
---
class: bg-main1

# What are the number of pedestrians per day?

```r
walk_day <- walk_tidy %>% 
  group_by(Date) %>%
  summarise(day_count = sum(Count, na.rm = TRUE))

walk_day
```

```
## # A tibble: 365 x 2
##    Date       day_count
##    <date>         <dbl>
##  1 2018-01-01     30832
##  2 2018-01-02     26136
##  3 2018-01-03     26567
##  4 2018-01-04     26532
##  5 2018-01-05     28203
##  6 2018-01-06     20845
##  7 2018-01-07     24052
##  8 2018-01-08     26530
##  9 2018-01-09     27116
## 10 2018-01-10     28203
## # … with 355 more rows
```
…
# Holidays

```r
walk_holiday <- walk_tidy %>%
  mutate(holiday = if_else(condition = Date %in% vic_holidays$date, 
                          true = "yes", 
                          false = "no")) %>%
  mutate(holiday = if_else(condition = wday %in% c("Sat", "Sun"), 
                          true = "yes", 
                          false = holiday)) 
walk_holiday
```

```
## # A tibble: 8,760 x 8
##    Sensor            Date_Time           Date        Time Count month wday  holiday
##    <chr>             <dttm>              <date>     <dbl> <dbl> <ord> <ord> <chr>  
##  1 Melbourne Central 2017-12-31 13:00:00 2018-01-01     0  2996 Jan   Mon   yes    
##  2 Melbourne Central 2017-12-31 14:00:00 2018-01-01     1  3481 Jan   Mon   yes    
##  3 Melbourne Central 2017-12-31 15:00:00 2018-01-01     2  1721 Jan   Mon   yes    
##  4 Melbourne Central 2017-12-31 16:00:00 2018-01-01     3  1056 Jan   Mon   yes    
##  5 Melbourne Central 2017-12-31 17:00:00 2018-01-01     4   417 Jan   Mon   yes    
##  6 Melbourne Central 2017-12-31 18:00:00 2018-01-01     5   222 Jan   Mon   yes    
##  7 Melbourne Central 2017-12-31 19:00:00 2018-01-01     6   110 Jan   Mon   yes    
##  8 Melbourne Central 2017-12-31 20:00:00 2018-01-01     7   180 Jan   Mon   yes    
##  9 Melbourne Central 2017-12-31 21:00:00 2018-01-01     8   205 Jan   Mon   yes    
## 10 Melbourne Central 2017-12-31 22:00:00 2018-01-01     9   326 Jan   Mon   yes    
## # … with 8,750 more rows
```
…
