Assignment_3
…
##   r.squared adj.r.squared     sigma statistic p.value df   logLik
## 1 0.9993496     0.9993493 0.1524609   3071707       0 10 9243.173
##         AIC       BIC deviance df.residual
## 1 -18464.35 -18377.41 464.6541       19990

## As seen, all 3 models (linear and interactive variables) have roughly the same R squared value. 

houses_predict$Price_1 <- predict(house_modB, data.frame(houses_testing))

mutate(houses_predict, Price = 10^Price_1)

## # A tibble: 5,559 x 6
##       Price Rooms Type  Distance Bathroom Price_1
##       <dbl> <dbl> <chr>    <dbl>    <dbl>   <dbl>
##  1 1067009.    2. h         2.50       1.    6.03
##  2 1097745.    3. u         2.50       2.    6.04
##  3  764065.    2. u         2.50       2.    5.88
##  4 1067009.    2. h         2.50       1.    6.03
##  5 1097745.    3. u         2.50       2.    6.04
##  6 1566720.    3. h         2.50       2.    6.19
##  7  887234.    3. h        13.5        1.    5.95
##  8 1043940.    2. h         3.30       1.    6.02
##  9 1227156.    3. h         3.30       1.    6.09
## 10 1227156.    3. h         3.30       1.    6.09
## # ... with 5,549 more rows
…
