Assignment 1
…
passengers <- read_xls("data/WebAirport_FY_1986-2017.xls", sheet=3, skip=6)
passengers_tidy <- passengers %>%
  gather('INBOUND', 'OUTBOUND', 'INBOUND__1', 'OUTBOUND__1', 'INBOUND__2', 'OUTBOUND__2', key = 'BOUND', value = 'RevenuePassengers') %>%
  separate(BOUND, c('BOUND', 'type'), fill = 'right') %>%
  mutate(type = replace_na(type, 'Domestic')) %>% 
  mutate(type = sub('1', 'International', type)) %>% 
  mutate(type = sub('2', 'Total', type)) %>%
  select(AIRPORT, Year, BOUND, type, RevenuePassengers) %>% 
  complete(AIRPORT) %>% 
  filter(AIRPORT != 'TOTAL AUSTRALIA') %>%
  filter(type != 'Total')

print(passengers_tidy)

## # A tibble: 12,544 x 5
##    AIRPORT  Year    BOUND   type     RevenuePassengers
##    <chr>    <chr>   <chr>   <chr>                <dbl>
##  1 ADELAIDE 1985-86 INBOUND Domestic           984010.
##  2 ADELAIDE 1986-87 INBOUND Domestic           973288.
##  3 ADELAIDE 1987-88 INBOUND Domestic          1047798.
##  4 ADELAIDE 1988-89 INBOUND Domestic          1075380.
##  5 ADELAIDE 1989-90 INBOUND Domestic           823571.
##  6 ADELAIDE 1990-91 INBOUND Domestic          1136965.
##  7 ADELAIDE 1991-92 INBOUND Domestic          1403103.
##  8 ADELAIDE 1992-93 INBOUND Domestic          1408479.
##  9 ADELAIDE 1993-94 INBOUND Domestic          1510831.
## 10 ADELAIDE 1994-95 INBOUND Domestic          1634705.
## # ... with 12,534 more rows
…
Spreading the Data for Scatter Plots

passengers_tidy_spread <- passengers_tidy %>% spread(key=BOUND, value=RevenuePassengers)
passengers_tidy_spread

## # A tibble: 6,272 x 5
##    AIRPORT  Year    type           INBOUND OUTBOUND
##    <chr>    <chr>   <chr>            <dbl>    <dbl>
##  1 ADELAIDE 1985-86 Domestic       984010.  978987.
##  2 ADELAIDE 1985-86 International   59833.   58726.
##  3 ADELAIDE 1986-87 Domestic       973288.  970841.
##  4 ADELAIDE 1986-87 International   71595.   67288.
##  5 ADELAIDE 1987-88 Domestic      1047798. 1049947.
##  6 ADELAIDE 1987-88 International   72988.   68531.
##  7 ADELAIDE 1988-89 Domestic      1075380. 1076670.
##  8 ADELAIDE 1988-89 International   71287.   67146.
##  9 ADELAIDE 1989-90 Domestic       823571.  833597.
## 10 ADELAIDE 1989-90 International   86037.   82222.
## # ... with 6,262 more rows
…
