Assignment3
…
## # A tibble: 1 x 7
##   miss_df_prop miss_var_prop miss_case_prop miss_case_table miss_var_table
##          <dbl>         <dbl>          <dbl> <list>          <list>        
## 1        0.115         0.667          0.403 <tibble [4 x 3~ <tibble [5 x ~
## # ... with 2 more variables: miss_var_summary <list>,
## #   miss_case_summary <list>

Shadow matrix for houses before cleaning up missing values

houses1_shadow <- bind_shadow(houses1)
houses1_shadow

## # A tibble: 34,857 x 12
##      Price Rooms Type  Distance Bedroom2 Bathroom Price_NA Rooms_NA
##      <int> <int> <chr>    <dbl>    <int>    <int> <fct>    <fct>   
##  1      NA     2 house     2.50        2        1 NA       !NA     
##  2 1480000     2 house     2.50        2        1 !NA      !NA     
##  3 1035000     2 house     2.50        2        1 !NA      !NA     
##  4      NA     3 unit      2.50        3        2 NA       !NA     
##  5 1465000     3 house     2.50        3        2 !NA      !NA     
##  6  850000     3 house     2.50        3        2 !NA      !NA     
##  7 1600000     4 house     2.50        3        1 !NA      !NA     
##  8      NA     4 house     2.50        3        2 NA       !NA     
##  9      NA     2 house     2.50        4        1 NA       !NA     
## 10      NA     2 house     2.50        3        2 NA       !NA     
## # ... with 34,847 more rows, and 4 more variables: Type_NA <fct>,
## #   Distance_NA <fct>, Bedroom2_NA <fct>, Bathroom_NA <fct>
…
According to the above plot, there are no more missing values after cleaning it up as 100% of values are present.

Shadow matrix for houses after cleaning up missing values

houses3_shadow <- bind_shadow(houses3)
houses3_shadow

## # A tibble: 6,709 x 12
##     Price Rooms Type  Distance Bedroom2 Bathroom Price_NA Rooms_NA Type_NA
##     <int> <int> <chr>    <dbl>    <dbl>    <dbl> <fct>    <fct>    <fct>  
##  1 1.60e6     4 house     2.50       3.       1. !NA      !NA      !NA    
##  2 1.18e6     3 house     2.50       2.       1. !NA      !NA      !NA    
##  3 6.00e5     3 house    13.5        2.       1. !NA      !NA      !NA    
##  4 7.20e5     3 house    13.5        2.       1. !NA      !NA      !NA    
##  5 7.85e5     4 house    13.5        3.       1. !NA      !NA      !NA    
##  6 7.55e5     5 house    13.5        3.       2. !NA      !NA      !NA    
##  7 1.11e6     2 house     3.30       1.       1. !NA      !NA      !NA    
##  8 2.10e6     3 house     3.30       2.       1. !NA      !NA      !NA    
##  9 6.50e5     2 town~     6.40       0.       1. !NA      !NA      !NA    
## 10 1.48e6     3 house     6.40       3.       0. !NA      !NA      !NA    
## # ... with 6,699 more rows, and 3 more variables: Distance_NA <fct>,
## #   Bedroom2_NA <fct>, Bathroom_NA <fct>
…
