Assigment 3
…
miss_summary(houses)

## # A tibble: 1 x 7
##   miss_df_prop miss_var_prop miss_case_prop miss_case_table miss_var_table
##          <dbl>         <dbl>          <dbl> <list>          <list>        
## 1       0.0788         0.500          0.237 <tibble [4 x 3~ <tibble [4 x ~
## # ... with 2 more variables: miss_var_summary <list>,
## #   miss_case_summary <list>

#### These summaries tell us that missing values for Bedroom2 fall on the same observations as the missing values for Bathroom. These missing values differ from Price. This means that there could be a common theme for why missing values appear for the same house for Bedroom and Bathroom. The summary also tells us that around 40% of the cases contain missing values. This is almost half of the observations, meaning that discounting these values will discount almost half of the data attained. 
#### The variables with the greatest amount of missing values are Price, Bedroom2 and Bathroom. The summary also states that distance does have a missing value however it does not come up in the plotted graphs.
#houses_wo_missings %>%
  na.omit(houses)

## # A tibble: 20,800 x 6
##      Price Rooms Type  Distance Bedroom2 Bathroom
##      <int> <int> <chr>    <dbl>    <int>    <int>
##  1 1480000     2 h         2.50        2        1
##  2 1035000     2 h         2.50        2        1
##  3 1465000     3 h         2.50        3        2
##  4  850000     3 h         2.50        3        2
##  5 1600000     4 h         2.50        3        1
##  6  941000     2 h         2.50        2        1
##  7 1876000     3 h         2.50        4        2
##  8 1636000     2 h         2.50        2        1
##  9  300000     1 u         2.50        1        1
## 10 1097000     2 h         2.50        3        1
## # ... with 20,790 more rows
…
