ETC1010 Assignment 1
…
Cowan
ALY
Anne
Australian Labor Party
39.4
39.9

When a voter would prefer a minor party, they can cast their vote for that candidate, but if their candidate gets insufficient votes, the voters second (or third) choice of candidate will receive the vote.

(2) How many different parties contested the election? Which party received the least votes over the country? How many electorates were contested by the party with the least votes?

There were 56 parties contesting the election.

# A tibble: 56 x 2
   PartyNm                      tot
   <chr>                      <dbl>
 1 Australian Progressives      282
 2 Palmer United Party          315
 3 Sustainable Australia        606
 4 Australian Cyclists Party    846
 5 Voluntary Euthanasia Party   973
 6 Marijuana (HEMP) Party      1143
 7 Pirate Party Australia      1260
 8 Smokers Rights              1343
 9 Antipaedophile Party        1527
10 Socialist Equality Party    1608
#  with 46 more rows
…
