Assignment 1
…
##  ggplot2 2.2.1      purrr   0.2.4
##  tibble  1.4.2      dplyr   0.7.4
##  tidyr   0.8.0      stringr 1.3.0
##  readr   1.1.1      forcats 0.3.0

##  Conflicts  tidyverse_conflicts() 
##  dplyr::filter() masks stats::filter()
##  dplyr::lag()    masks stats::lag()

library(ggplot2)
passengers <- read_xls("data/WebAirport_FY_1986-2017.xls", sheet=3, skip=6)
passengers

## # A tibble: 3,479 x 14
##    X__1        AIRPORT    Year   Rank  INBOUND OUTBOUND   TOTAL INBOUND__1
##    <chr>       <chr>      <chr>  <chr>   <dbl>    <dbl>   <dbl>      <dbl>
##  1 TOTAL AUST TOTAL AUS 1985- -      1.45e7   1.45e7  2.91e7   2767413.
##  2 TOTAL AUST TOTAL AUS 1986- -      1.50e7   1.50e7  3.00e7   3154920.
##  3 TOTAL AUST TOTAL AUS 1987- -      1.62e7   1.62e7  3.24e7   3692976.
##  4 TOTAL AUST TOTAL AUS 1988- -      1.65e7   1.65e7  3.30e7   4022634.
##  5 TOTAL AUST TOTAL AUS 1989- -      1.19e7   1.19e7  2.37e7   4175315.
##  6 TOTAL AUST TOTAL AUS 1990- -      1.65e7   1.65e7  3.31e7   4257165.
##  7 TOTAL AUST TOTAL AUS 1991- -      2.05e7   2.05e7  4.11e7   4539042.
##  8 TOTAL AUST TOTAL AUS 1992- -      2.09e7   2.09e7  4.18e7   4902693.
##  9 TOTAL AUST TOTAL AUS 1993- -      2.27e7   2.27e7  4.53e7   5340017.
## 10 TOTAL AUST TOTAL AUS 1994- -      2.51e7   2.51e7  5.02e7   5830311.
## # ... with 3,469 more rows, and 6 more variables: OUTBOUND__1 <dbl>,
## #   TOTAL__1 <dbl>, INBOUND__2 <dbl>, OUTBOUND__2 <dbl>, TOTAL__2 <dbl>,
## #   X__2 <chr>
…
# Removing observations for TOTAL AUSTRALIA 
passengers <- filter(passengers, AIRPORT != 'TOTAL AUSTRALIA')

## Gathering by domestic and international flights
passengers <- passengers %>%
  gather(INBOUND, OUTBOUND, INBOUND__1, OUTBOUND__1, key = type_of_flight, value = passengers) %>%
  mutate(type_of_flight = sub('INBOUND', 'IN_BOUND', type_of_flight)) %>%
  mutate(type_of_flight = sub('OUTBOUND', 'OUT_BOUND', type_of_flight)) %>%
  mutate(type_of_flight = sub('BOUND__1', 'INTERNATIONAL', type_of_flight)) %>%
  mutate(type_of_flight = sub('BOUND', 'DOMESTIC', type_of_flight)) %>%
  separate(type_of_flight, c('bound', 'type_of_flight'))
passengers

## # A tibble: 12,544 x 5
##    AIRPORT  Year    bound type_of_flight passengers
##    <chr>    <chr>   <chr> <chr>               <dbl>
##  1 ADELAIDE 1985-86 IN    DOMESTIC          984010.
##  2 ADELAIDE 1986-87 IN    DOMESTIC          973288.
##  3 ADELAIDE 1987-88 IN    DOMESTIC         1047798.
##  4 ADELAIDE 1988-89 IN    DOMESTIC         1075380.
##  5 ADELAIDE 1989-90 IN    DOMESTIC          823571.
##  6 ADELAIDE 1990-91 IN    DOMESTIC         1136965.
##  7 ADELAIDE 1991-92 IN    DOMESTIC         1403103.
##  8 ADELAIDE 1992-93 IN    DOMESTIC         1408479.
##  9 ADELAIDE 1993-94 IN    DOMESTIC         1510831.
## 10 ADELAIDE 1994-95 IN    DOMESTIC         1634705.
## # ... with 12,534 more rows
…
