Assignment 1
…
library(readxl)
passengers <- read_xls("data/WebAirport_FY_1986-2017.xls", sheet=3, skip=6) %>% filter(!is.na(INBOUND)) #gets data
passengers

## # A tibble: 3,168 x 14
##    X__1        AIRPORT    Year   Rank  INBOUND OUTBOUND   TOTAL INBOUND__1
##    <chr>       <chr>      <chr>  <chr>   <dbl>    <dbl>   <dbl>      <dbl>
##  1 TOTAL AUST~ TOTAL AUS~ 1985-~ -      1.45e7   1.45e7  2.91e7   2767413.
##  2 TOTAL AUST~ TOTAL AUS~ 1986-~ -      1.50e7   1.50e7  3.00e7   3154920.
##  3 TOTAL AUST~ TOTAL AUS~ 1987-~ -      1.62e7   1.62e7  3.24e7   3692976.
##  4 TOTAL AUST~ TOTAL AUS~ 1988-~ -      1.65e7   1.65e7  3.30e7   4022634.
##  5 TOTAL AUST~ TOTAL AUS~ 1989-~ -      1.19e7   1.19e7  2.37e7   4175315.
##  6 TOTAL AUST~ TOTAL AUS~ 1990-~ -      1.65e7   1.65e7  3.31e7   4257165.
##  7 TOTAL AUST~ TOTAL AUS~ 1991-~ -      2.05e7   2.05e7  4.11e7   4539042.
##  8 TOTAL AUST~ TOTAL AUS~ 1992-~ -      2.09e7   2.09e7  4.18e7   4902693.
##  9 TOTAL AUST~ TOTAL AUS~ 1993-~ -      2.27e7   2.27e7  4.53e7   5340017.
## 10 TOTAL AUST~ TOTAL AUS~ 1994-~ -      2.51e7   2.51e7  5.02e7   5830311.
## # ... with 3,158 more rows, and 6 more variables: OUTBOUND__1 <dbl>,
## #   TOTAL__1 <dbl>, INBOUND__2 <dbl>, OUTBOUND__2 <dbl>, TOTAL__2 <dbl>,
## #   X__2 <chr>
…
#Add a column to each set for type of flight
passengers_domestic['Type'] = 'Domestic'
passengers_international['Type'] = 'International'

#Rename columns to desired names
passengers_domestic <- plyr::rename(passengers_domestic, c("INBOUND"="IN", "OUTBOUND" ="OUT"))
passengers_international <- plyr::rename(passengers_international, c("INBOUND__1"="IN", "OUTBOUND__1"="OUT"))

#combine sets into one
passengers_new <- rbind(passengers_domestic, passengers_international)
 
passengers_new

## # A tibble: 6,336 x 5
##    AIRPORT         Year           IN       OUT Type    
##    <chr>           <chr>       <dbl>     <dbl> <chr>   
##  1 TOTAL AUSTRALIA 1985-86 14543928. 14543928. Domestic
##  2 TOTAL AUSTRALIA 1986-87 15001877. 15001877. Domestic
##  3 TOTAL AUSTRALIA 1987-88 16181355. 16181355. Domestic
##  4 TOTAL AUSTRALIA 1988-89 16497749. 16497826. Domestic
##  5 TOTAL AUSTRALIA 1989-90 11861519. 11861644. Domestic
##  6 TOTAL AUSTRALIA 1990-91 16536767. 16536767. Domestic
##  7 TOTAL AUSTRALIA 1991-92 20525193. 20525193. Domestic
##  8 TOTAL AUSTRALIA 1992-93 20923187. 20923187. Domestic
##  9 TOTAL AUSTRALIA 1993-94 22668912. 22668912. Domestic
## 10 TOTAL AUSTRALIA 1994-95 25091352. 25091227. Domestic
## # ... with 6,326 more rows
…
