ETC1010: Data Modelling and Computing
…
.huge[
Netword data can be thought of as two related tables, **nodes** and **edges**:

- **nodes** are connection points
- **edges** are the connections between points
]

---
class: bg-main1

# Example: Mad Men. (Nodes = characters from the series)

```
## # A tibble: 45 x 2
##    label          Gender
##    <fct>          <fct> 
##  1 Betty Draper   female
##  2 Don Draper     male  
##  3 Harry Crane    male  
##  4 Joan Holloway  female
##  5 Lane Pryce     male  
##  6 Peggy Olson    female
##  7 Pete Campbell  male  
##  8 Roger Sterling male  
##  9 Sal Romano     male  
## 10 Henry Francis  male  
## # … with 35 more rows
```

---
class: bg-main1

# Example: Mad Men. (Edges = how they are associated)

```
## # A tibble: 39 x 2
##    Name1        Name2           
##    <fct>        <fct>           
##  1 Betty Draper Henry Francis   
##  2 Betty Draper Random guy      
##  3 Don Draper   Allison         
##  4 Don Draper   Bethany Van Nuys
##  5 Don Draper   Betty Draper    
##  6 Don Draper   Bobbie Barrett  
##  7 Don Draper   Candace         
##  8 Don Draper   Doris           
##  9 Don Draper   Faye Miller     
## 10 Don Draper   Joy             
## # … with 29 more rows
```
…
---
class: bg-main1

# Which actor was most connected?

```r
madmen_graph %>%
  activate(nodes) %>% 
  mutate(count = centrality_degree()) %>%
  arrange(-count) %>%
  as_tibble()
```

```
## # A tibble: 45 x 3
##    label                    Gender count
##    <fct>                    <fct>  <dbl>
##  1 Joan Holloway            female    14
##  2 Woman at the Clios party female     6
##  3 Janine                   female     5
##  4 Duck Phillips            male       4
##  5 Betty Draper             female     3
##  6 Rachel Menken            female     3
##  7 Hildy                    female     3
##  8 Joy                      female     2
##  9 Vicky                    female     2
## 10 Don Draper               male       1
## # … with 35 more rows
```
…
# `centrality` what now?

.pull-left[

```r
madmen_graph %>%
  activate(nodes) %>% 
* mutate(count = centrality_degree()) %>%
  arrange(-count) %>%
  as_tibble()
```

```
## # A tibble: 45 x 3
##    label                    Gender count
##    <fct>                    <fct>  <dbl>
##  1 Joan Holloway            female    14
##  2 Woman at the Clios party female     6
##  3 Janine                   female     5
##  4 Duck Phillips            male       4
##  5 Betty Draper             female     3
##  6 Rachel Menken            female     3
##  7 Hildy                    female     3
##  8 Joy                      female     2
##  9 Vicky                    female     2
## 10 Don Draper               male       1
## # … with 35 more rows
```
…
