ETC1010Assignment- NBA Statistics 2017/18 Season
…
# What aspects of a player impacts the minutes they play?

- Correlation Test (R)
  - Transformation of Minutes variable
- The model
  - Coefficients and R^2 Value

<img src="Project_Presentation_files/figure-html/unnamed-chunk-8-1.png" style="display: block; margin: auto;" />

---

# The Perfect Triple Double Threat

```
# A tibble: 400 x 2
   PLAYER_NAME            best
   <chr>                 <dbl>
 1 LeBron James           220.
 2 Russell Westbrook      192.
 3 Nikola Jokic           184.
 4 Giannis Antetokounmpo  171.
 5 Chris Paul             159.
 6 DeMarcus Cousins       141.
 7 James Harden           128.
 8 Karl-Anthony Towns     127.
 9 Kevin Durant           127.
10 Ben Simmons            127.
# ... with 390 more rows
```
…
