ETC1010Assignment- Research of infant mortality
…
---

```
[1] 0.2991764
[1] 0.9534884
```

```
# A tibble: 42 x 1
     mri
   <dbl>
 1 0.403
 2 0.375
 3 0.352
 4 0.348
 5 0.330
 6 0.314
 7 0.211
 8 0.174
 9 0.168
10 0.143
# ... with 32 more rows
```
…
