ETC1010: Data Modelling and Computing
…
--

.right-plot[

```r
fries_long
```

```
## # A tibble: 3,480 x 6
##     time treatment subject   rep type   rating
##    <dbl>     <dbl>   <dbl> <dbl> <fct>   <dbl>
##  1     1         1       3     1 potato    2.9
##  2     1         1       3     2 potato   14  
##  3     1         1      10     1 potato   11  
##  4     1         1      10     2 potato    9.9
##  5     1         1      15     1 potato    1.2
##  6     1         1      15     2 potato    8.8
##  7     1         1      16     1 potato    9  
##  8     1         1      16     2 potato    8.2
##  9     1         1      19     1 potato    7  
## 10     1         1      19     2 potato   13  
## # … with 3,470 more rows
```
…
# `filter()`: choose observations from your data

---
class: bg-main5

# `filter()`: example

```r
fries_long %>%
  filter(subject == 10)
```

```
## # A tibble: 300 x 6
##     time treatment subject   rep type   rating
##    <dbl>     <dbl>   <dbl> <dbl> <fct>   <dbl>
##  1     1         1      10     1 potato   11  
##  2     1         1      10     2 potato    9.9
##  3     1         2      10     1 potato    9.3
##  4     1         2      10     2 potato   11  
##  5     1         3      10     1 potato   11.3
##  6     1         3      10     2 potato   10.1
##  7     2         1      10     1 potato    8  
##  8     2         1      10     2 potato   10.2
##  9     2         2      10     1 potato   11.2
## 10     2         2      10     2 potato    8.2
## # … with 290 more rows
```
…
---
class: bg-main2
# French Fries Filter: only week 1

```r
fries_long %>% filter(time == 1)
```

```
## # A tibble: 360 x 6
##     time treatment subject   rep type   rating
##    <dbl>     <dbl>   <dbl> <dbl> <fct>   <dbl>
##  1     1         1       3     1 potato    2.9
##  2     1         1       3     2 potato   14  
##  3     1         1      10     1 potato   11  
##  4     1         1      10     2 potato    9.9
##  5     1         1      15     1 potato    1.2
##  6     1         1      15     2 potato    8.8
##  7     1         1      16     1 potato    9  
##  8     1         1      16     2 potato    8.2
##  9     1         1      19     1 potato    7  
## 10     1         1      19     2 potato   13  
## # … with 350 more rows
```

---
class: bg-main2
# French Fries Filter: oil type 1

```r
fries_long %>% filter(treatment == 1)
```

```
## # A tibble: 1,160 x 6
##     time treatment subject   rep type   rating
##    <dbl>     <dbl>   <dbl> <dbl> <fct>   <dbl>
##  1     1         1       3     1 potato    2.9
##  2     1         1       3     2 potato   14  
##  3     1         1      10     1 potato   11  
##  4     1         1      10     2 potato    9.9
##  5     1         1      15     1 potato    1.2
##  6     1         1      15     2 potato    8.8
##  7     1         1      16     1 potato    9  
##  8     1         1      16     2 potato    8.2
##  9     1         1      19     1 potato    7  
## 10     1         1      19     2 potato   13  
## # … with 1,150 more rows
```

---
class: bg-main2

# French Fries Filter: oil types 1 and 3 but not 2

```r
fries_long %>% filter(treatment != 2)
```

```
## # A tibble: 2,320 x 6
##     time treatment subject   rep type   rating
##    <dbl>     <dbl>   <dbl> <dbl> <fct>   <dbl>
##  1     1         1       3     1 potato    2.9
##  2     1         1       3     2 potato   14  
##  3     1         1      10     1 potato   11  
##  4     1         1      10     2 potato    9.9
##  5     1         1      15     1 potato    1.2
##  6     1         1      15     2 potato    8.8
##  7     1         1      16     1 potato    9  
##  8     1         1      16     2 potato    8.2
##  9     1         1      19     1 potato    7  
## 10     1         1      19     2 potato   13  
## # … with 2,310 more rows
```

---
class: bg-main2
# French Fries Filter: weeks 1-4 only

```r
fries_long %>% filter(time %in% c("1", "2", "3", "4"))
```

```
## # A tibble: 1,440 x 6
##     time treatment subject   rep type   rating
##    <dbl>     <dbl>   <dbl> <dbl> <fct>   <dbl>
##  1     1         1       3     1 potato    2.9
##  2     1         1       3     2 potato   14  
##  3     1         1      10     1 potato   11  
##  4     1         1      10     2 potato    9.9
##  5     1         1      15     1 potato    1.2
##  6     1         1      15     2 potato    8.8
##  7     1         1      16     1 potato    9  
##  8     1         1      16     2 potato    8.2
##  9     1         1      19     1 potato    7  
## 10     1         1      19     2 potato   13  
## # … with 1,430 more rows
```
…
---
class: bg-main2

# `select()`: a comma separated list of variables, by name. 

```r
french_fries %>% 
  select(time, 
         treatment, 
         subject)
```

```
## # A tibble: 696 x 3
##     time treatment subject
##    <dbl>     <dbl>   <dbl>
##  1     1         1       3
##  2     1         1       3
##  3     1         1      10
##  4     1         1      10
##  5     1         1      15
##  6     1         1      15
##  7     1         1      16
##  8     1         1      16
##  9     1         1      19
## 10     1         1      19
## # … with 686 more rows
```
…
# `select()`: **drop** selected variables by prefixing with `-`

--

```r
french_fries %>% 
  select(-time, 
         -treatment, 
         -subject)
```

```
## # A tibble: 696 x 6
##      rep potato buttery grassy rancid painty
##    <dbl>  <dbl>   <dbl>  <dbl>  <dbl>  <dbl>
##  1     1    2.9     0      0      0      5.5
##  2     2   14       0      0      1.1    0  
##  3     1   11       6.4    0      0      0  
##  4     2    9.9     5.9    2.9    2.2    0  
##  5     1    1.2     0.1    0      1.1    5.1
##  6     2    8.8     3      3.6    1.5    2.3
##  7     1    9       2.6    0.4    0.1    0.2
##  8     2    8.2     4.4    0.3    1.4    4  
##  9     1    7       3.2    0      4.9    3.2
## 10     2   13       0      3.1    4.3   10.3
## # … with 686 more rows
```
…
.vlarge.left-code[
Inside `select()` you can use text-matching of the names like `starts_with()`, `ends_with()`, `contains()`, `matches()`, or `everything()`
]

--

.right-plot[

```r
french_fries %>% 
  select(contains("e"))
```

```
## # A tibble: 696 x 5
##     time treatment subject   rep buttery
##    <dbl>     <dbl>   <dbl> <dbl>   <dbl>
##  1     1         1       3     1     0  
##  2     1         1       3     2     0  
##  3     1         1      10     1     6.4
##  4     1         1      10     2     5.9
##  5     1         1      15     1     0.1
##  6     1         1      15     2     3  
##  7     1         1      16     1     2.6
##  8     1         1      16     2     4.4
##  9     1         1      19     1     3.2
## 10     1         1      19     2     0  
## # … with 686 more rows
```
…
.huge.left-code[
You can use `:` to choose variables in order of the columns
]

--

.right-plot[

```r
french_fries %>% 
  select(time:subject)
```

```
## # A tibble: 696 x 3
##     time treatment subject
##    <dbl>     <dbl>   <dbl>
##  1     1         1       3
##  2     1         1       3
##  3     1         1      10
##  4     1         1      10
##  5     1         1      15
##  6     1         1      15
##  7     1         1      16
##  8     1         1      16
##  9     1         1      19
## 10     1         1      19
## # … with 686 more rows
```
…
.purple.large.right[
Artwork by @allison_horst
]

---
class: bg-main4

# `mutate()`: create a new variable; keep existing ones

```r
french_fries 
```

```
## # A tibble: 696 x 9
##     time treatment subject   rep potato buttery grassy rancid painty
##    <dbl>     <dbl>   <dbl> <dbl>  <dbl>   <dbl>  <dbl>  <dbl>  <dbl>
##  1     1         1       3     1    2.9     0      0      0      5.5
##  2     1         1       3     2   14       0      0      1.1    0  
##  3     1         1      10     1   11       6.4    0      0      0  
##  4     1         1      10     2    9.9     5.9    2.9    2.2    0  
##  5     1         1      15     1    1.2     0.1    0      1.1    5.1
##  6     1         1      15     2    8.8     3      3.6    1.5    2.3
##  7     1         1      16     1    9       2.6    0.4    0.1    0.2
##  8     1         1      16     2    8.2     4.4    0.3    1.4    4  
##  9     1         1      19     1    7       3.2    0      4.9    3.2
## 10     1         1      19     2   13       0      3.1    4.3   10.3
## # … with 686 more rows
```

---
class: bg-main4

# `mutate()`: create a new variable; keep existing ones

```r
french_fries %>% 
* mutate(rainty = rancid + painty)
```

```
## # A tibble: 696 x 10
##     time treatment subject   rep potato buttery grassy rancid painty rainty
##    <dbl>     <dbl>   <dbl> <dbl>  <dbl>   <dbl>  <dbl>  <dbl>  <dbl>  <dbl>
##  1     1         1       3     1    2.9     0      0      0      5.5   5.5 
##  2     1         1       3     2   14       0      0      1.1    0     1.1 
##  3     1         1      10     1   11       6.4    0      0      0     0   
##  4     1         1      10     2    9.9     5.9    2.9    2.2    0     2.2 
##  5     1         1      15     1    1.2     0.1    0      1.1    5.1   6.20
##  6     1         1      15     2    8.8     3      3.6    1.5    2.3   3.8 
##  7     1         1      16     1    9       2.6    0.4    0.1    0.2   0.3 
##  8     1         1      16     2    8.2     4.4    0.3    1.4    4     5.4 
##  9     1         1      19     1    7       3.2    0      4.9    3.2   8.1 
## 10     1         1      19     2   13       0      3.1    4.3   10.3  14.6 
## # … with 686 more rows
```
…
---
class: bg-main1

# French Fries: Are reps like each other?

```r
fries_spread <- fries_long %>% 
  spread(key = rep, 
         value = rating)
  
fries_spread
```

```
## # A tibble: 1,740 x 6
##     time treatment subject type      `1`   `2`
##    <dbl>     <dbl>   <dbl> <fct>   <dbl> <dbl>
##  1     1         1       3 buttery   0     0  
##  2     1         1       3 grassy    0     0  
##  3     1         1       3 painty    5.5   0  
##  4     1         1       3 potato    2.9  14  
##  5     1         1       3 rancid    0     1.1
##  6     1         1      10 buttery   6.4   5.9
##  7     1         1      10 grassy    0     2.9
##  8     1         1      10 painty    0     0  
##  9     1         1      10 potato   11     9.9
## 10     1         1      10 rancid    0     2.2
## # … with 1,730 more rows
```
…
<a rel="license" href="http://creativecommons.org/licenses/by-nc-sa/4.0/"><img alt="Creative Commons License" style="border-width:0" src="https://i.creativecommons.org/l/by-nc-sa/4.0/88x31.png" /></a><br />This work is licensed under a <a rel="license" href="http://creativecommons.org/licenses/by-nc-sa/4.0/">Creative Commons Attribution-NonCommercial-ShareAlike 4.0 International License</a>.

???

# `select()` example

```r
tb <- read_csv("data/TB_notifications_2018-03-18.csv") %>%
  select(country, year, starts_with("new_sp_")) 
tb %>% top_n(20)
```

```
## # A tibble: 22 x 22
##    country  year new_sp_m04 new_sp_m514 new_sp_m014 new_sp_m1524
##    <chr>   <dbl>      <dbl>       <dbl>       <dbl>        <dbl>
##  1 Argent…  2008         11          58          69          633
##  2 Argent…  2009          8          36          44          546
##  3 Argent…  2011         50          93         143          664
##  4 Argent…  2012          8          51          59          533
##  5 Brazil   2010        130         168         298         4405
##  6 Brazil   2012        112         165         277         5027
##  7 Centra…  2010         23          55          78          379
##  8 Centra…  2011         14          56          70          362
##  9 Guinea…  2012          1           6           7          145
## 10 Italy    2005          7           1           8           93
## # … with 12 more rows, and 16 more variables: new_sp_m2534 <dbl>,
## #   new_sp_m3544 <dbl>, new_sp_m4554 <dbl>, new_sp_m5564 <dbl>,
## #   new_sp_m65 <dbl>, new_sp_mu <dbl>, new_sp_f04 <dbl>,
## #   new_sp_f514 <dbl>, new_sp_f014 <dbl>, new_sp_f1524 <dbl>,
## #   new_sp_f2534 <dbl>, new_sp_f3544 <dbl>, new_sp_f4554 <dbl>,
## #   new_sp_f5564 <dbl>, new_sp_f65 <dbl>, new_sp_fu <dbl>
```
