Exploring French Fries
…
Filter the french fries data to have:

only week 1

fries_long %>% filter(time == 1)

## # A tibble: 360 x 6
##     time treatment subject   rep type   rating
##    <dbl>     <dbl>   <dbl> <dbl> <fct>   <dbl>
##  1     1         1       3     1 potato    2.9
##  2     1         1       3     2 potato   14  
##  3     1         1      10     1 potato   11  
##  4     1         1      10     2 potato    9.9
##  5     1         1      15     1 potato    1.2
##  6     1         1      15     2 potato    8.8
##  7     1         1      16     1 potato    9  
##  8     1         1      16     2 potato    8.2
##  9     1         1      19     1 potato    7  
## 10     1         1      19     2 potato   13  
## #  with 350 more rows

weeks 1-4 only

fries_long %>% filter(time %in% c("1", "2", "3", "4"))

## # A tibble: 1,440 x 6
##     time treatment subject   rep type   rating
##    <dbl>     <dbl>   <dbl> <dbl> <fct>   <dbl>
##  1     1         1       3     1 potato    2.9
##  2     1         1       3     2 potato   14  
##  3     1         1      10     1 potato   11  
##  4     1         1      10     2 potato    9.9
##  5     1         1      15     1 potato    1.2
##  6     1         1      15     2 potato    8.8
##  7     1         1      16     1 potato    9  
##  8     1         1      16     2 potato    8.2
##  9     1         1      19     1 potato    7  
## 10     1         1      19     2 potato   13  
## #  with 1,430 more rows

oil type 1 (oil type is called treatment)

fries_long %>% filter(treatment == 1)

## # A tibble: 1,160 x 6
##     time treatment subject   rep type   rating
##    <dbl>     <dbl>   <dbl> <dbl> <fct>   <dbl>
##  1     1         1       3     1 potato    2.9
##  2     1         1       3     2 potato   14  
##  3     1         1      10     1 potato   11  
##  4     1         1      10     2 potato    9.9
##  5     1         1      15     1 potato    1.2
##  6     1         1      15     2 potato    8.8
##  7     1         1      16     1 potato    9  
##  8     1         1      16     2 potato    8.2
##  9     1         1      19     1 potato    7  
## 10     1         1      19     2 potato   13  
## #  with 1,150 more rows

oil types 1 and 3 but not 2

fries_long %>% filter(treatment != 2)

## # A tibble: 2,320 x 6
##     time treatment subject   rep type   rating
##    <dbl>     <dbl>   <dbl> <dbl> <fct>   <dbl>
##  1     1         1       3     1 potato    2.9
##  2     1         1       3     2 potato   14  
##  3     1         1      10     1 potato   11  
##  4     1         1      10     2 potato    9.9
##  5     1         1      15     1 potato    1.2
##  6     1         1      15     2 potato    8.8
##  7     1         1      16     1 potato    9  
##  8     1         1      16     2 potato    8.2
##  9     1         1      19     1 potato    7  
## 10     1         1      19     2 potato   13  
## #  with 2,310 more rows

End of first example - wait until the next section.

Using select()

choose time, treatment and rep

fries_long %>% select(time, treatment, rep)

## # A tibble: 3,480 x 3
##     time treatment   rep
##    <dbl>     <dbl> <dbl>
##  1     1         1     1
##  2     1         1     2
##  3     1         1     1
##  4     1         1     2
##  5     1         1     1
##  6     1         1     2
##  7     1         1     1
##  8     1         1     2
##  9     1         1     1
## 10     1         1     2
## #  with 3,470 more rows

choose subject through to rating

fries_long %>% select(subject:rating)

## # A tibble: 3,480 x 4
##    subject   rep type   rating
##      <dbl> <dbl> <fct>   <dbl>
##  1       3     1 potato    2.9
##  2       3     2 potato   14  
##  3      10     1 potato   11  
##  4      10     2 potato    9.9
##  5      15     1 potato    1.2
##  6      15     2 potato    8.8
##  7      16     1 potato    9  
##  8      16     2 potato    8.2
##  9      19     1 potato    7  
## 10      19     2 potato   13  
## #  with 3,470 more rows

drop subject

fries_long %>% select(-subject)

## # A tibble: 3,480 x 5
##     time treatment   rep type   rating
##    <dbl>     <dbl> <dbl> <fct>   <dbl>
##  1     1         1     1 potato    2.9
##  2     1         1     2 potato   14  
##  3     1         1     1 potato   11  
##  4     1         1     2 potato    9.9
##  5     1         1     1 potato    1.2
##  6     1         1     2 potato    8.8
##  7     1         1     1 potato    9  
##  8     1         1     2 potato    8.2
##  9     1         1     1 potato    7  
## 10     1         1     2 potato   13  
## #  with 3,470 more rows

Wait until next example

Learn to use mutate()

For the french fries data compute a new variable called lrating by taking a log of the rating

fries_long %>%
  mutate(lrating=log10(rating))

## # A tibble: 3,480 x 7
##     time treatment subject   rep type   rating lrating
##    <dbl>     <dbl>   <dbl> <dbl> <fct>   <dbl>   <dbl>
##  1     1         1       3     1 potato    2.9  0.462 
##  2     1         1       3     2 potato   14    1.15  
##  3     1         1      10     1 potato   11    1.04  
##  4     1         1      10     2 potato    9.9  0.996 
##  5     1         1      15     1 potato    1.2  0.0792
##  6     1         1      15     2 potato    8.8  0.944 
##  7     1         1      16     1 potato    9    0.954 
##  8     1         1      16     2 potato    8.2  0.914 
##  9     1         1      19     1 potato    7    0.845 
## 10     1         1      19     2 potato   13    1.11  
## #  with 3,470 more rows
…
Are reps like each other?

fries_spread <- fries_long %>% 
  spread(key = rep, 
         value = rating)
  
fries_spread

## # A tibble: 1,740 x 6
##     time treatment subject type      `1`   `2`
##    <dbl>     <dbl>   <dbl> <fct>   <dbl> <dbl>
##  1     1         1       3 buttery   0     0  
##  2     1         1       3 grassy    0     0  
##  3     1         1       3 painty    5.5   0  
##  4     1         1       3 potato    2.9  14  
##  5     1         1       3 rancid    0     1.1
##  6     1         1      10 buttery   6.4   5.9
##  7     1         1      10 grassy    0     2.9
##  8     1         1      10 painty    0     0  
##  9     1         1      10 potato   11     9.9
## 10     1         1      10 rancid    0     2.2
## #  with 1,730 more rows
…
