Lecture 7A Exercises
…
## Warning: 2 parsing failures.
## row col  expected    actual                                                                                                                 file
##   1  -- 7 columns 1 columns 'http://scrippsco2.ucsd.edu/assets/data/atmospheric/stations/merged_in_situ_and_flask/daily/daily_merge_co2_spo.csv'
##   2  -- 7 columns 1 columns 'http://scrippsco2.ucsd.edu/assets/data/atmospheric/stations/merged_in_situ_and_flask/daily/daily_merge_co2_spo.csv'

co2_spo

## # A tibble: 1,196 x 11
##    date       time     day decdate     n   flg   co2   lat   lon stn  
##    <date>     <tim>  <dbl>   <dbl> <dbl> <dbl> <dbl> <dbl> <dbl> <chr>
##  1 1957-06-17 00:00 20988    1957.     1     0  313.   -90     0 spo  
##  2 1957-12-22 00:00 21176    1958.     1     0  314.   -90     0 spo  
##  3 1957-12-23 00:00 21177    1958.     1     0  314.   -90     0 spo  
##  4 1958-03-21 00:00 21265    1958.     1     0  314.   -90     0 spo  
##  5 1958-03-22 06:30 21266.   1958.     2     0  314.   -90     0 spo  
##  6 1958-06-20 00:00 21356    1958.     1     0  315.   -90     0 spo  
##  7 1958-09-27 00:00 21455    1959.     1     0  315.   -90     0 spo  
##  8 1958-09-28 00:00 21456    1959.     1     0  315.   -90     0 spo  
##  9 1959-01-08 00:00 21558    1959.     1     0  315.   -90     0 spo  
## 10 1959-01-12 00:00 21562    1959.     1     0  315.   -90     0 spo  
## #  with 1,186 more rows, and 1 more variable: day0 <dbl>
…
tidy extracts the coefficients

augment extracts residuals and fitted values, and pointwise diagnostics

glance extracts model fit summaries

Plot the model

We can use the augment function to extract residuals and fitted values, and pointwise diagnostics

co2_model <- augment(co2_fit, co2_spo)

co2_model

## # A tibble: 1,196 x 18
##    date       time     day decdate     n   flg   co2   lat   lon stn  
##    <date>     <tim>  <dbl>   <dbl> <dbl> <dbl> <dbl> <dbl> <dbl> <chr>
##  1 1957-06-17 00:00 20988    1957.     1     0  313.   -90     0 spo  
##  2 1957-12-22 00:00 21176    1958.     1     0  314.   -90     0 spo  
##  3 1957-12-23 00:00 21177    1958.     1     0  314.   -90     0 spo  
##  4 1958-03-21 00:00 21265    1958.     1     0  314.   -90     0 spo  
##  5 1958-03-22 06:30 21266.   1958.     2     0  314.   -90     0 spo  
##  6 1958-06-20 00:00 21356    1958.     1     0  315.   -90     0 spo  
##  7 1958-09-27 00:00 21455    1959.     1     0  315.   -90     0 spo  
##  8 1958-09-28 00:00 21456    1959.     1     0  315.   -90     0 spo  
##  9 1959-01-08 00:00 21558    1959.     1     0  315.   -90     0 spo  
## 10 1959-01-12 00:00 21562    1959.     1     0  315.   -90     0 spo  
## #  with 1,186 more rows, and 8 more variables: day0 <dbl>, .fitted <dbl>,
## #   .se.fit <dbl>, .resid <dbl>, .hat <dbl>, .sigma <dbl>, .cooksd <dbl>,
## #   .std.resid <dbl>
…
