Assignment 3
…
#Proportion missing by room value
s_miss_group <- houses_clean %>% 
  group_by(Rooms) %>%
    miss_summary()
s_miss_group$miss_case_table

## [[1]]
## # A tibble: 25 x 4
##    Rooms n_miss_in_case n_cases pct_miss
##    <int>          <int>   <int>    <dbl>
##  1     2              0    4587  67.8   
##  2     2              2    2179  32.2   
##  3     3              0    9376  78.5   
##  4     3              1       2   0.0168
##  5     3              2    2562  21.5   
##  6     4              0    4851  82.1   
##  7     4              1       2   0.0338
##  8     4              2    1059  17.9   
##  9     1              0     769  64.4   
## 10     1              1       1   0.0837
## # ... with 15 more rows
…
