ETC1010: Data Modelling and Computing
…
---
class: bg-main1

## Quantitative association matrices

.huge[
We would need to turn this into an edge data set:
]

```
## # A tibble: 25 x 3
##    from  to    count
##    <chr> <chr> <dbl>
##  1 Meg   Meg       0
##  2 Tay   Meg       5
##  3 Yat   Meg       4
##  4 Zili  Meg       1
##  5 Jess  Meg       1
##  6 Meg   Tay       5
##  7 Tay   Tay       0
##  8 Yat   Tay       4
##  9 Zili  Tay       2
## 10 Jess  Tay       1
## # … with 15 more rows
```
…
```r
cv <- function(x){
  sd(x)/mean(x)
}

rates %>% select(-date) %>%
  summarise_all(funs(cv)) %>%
  gather(key = curr, 
         value = cv) 
```

```
## # A tibble: 170 x 2
##    curr         cv
##    <chr>     <dbl>
##  1 AED   0.0000222
##  2 AFN   0.0111   
##  3 ALL   0.00823  
##  4 AMD   0.00276  
##  5 ANG   0.0120   
##  6 AOA   0.0535   
##  7 ARS   0.116    
##  8 AUD   0.0151   
##  9 AWG   0.00136  
## 10 AZN   0.000328 
## # … with 160 more rows
```
…
```r
cv <- function(x){
  sd(x)/mean(x)
}

rates %>% select(-date) %>%
  summarise_all(funs(cv)) %>%
  gather(key = curr, 
         value = cv) %>%
  filter(cv > 0.0027)
```

```
## # A tibble: 130 x 2
##    curr       cv
##    <chr>   <dbl>
##  1 AFN   0.0111 
##  2 ALL   0.00823
##  3 AMD   0.00276
##  4 ANG   0.0120 
##  5 AOA   0.0535 
##  6 ARS   0.116  
##  7 AUD   0.0151 
##  8 BAM   0.0106 
##  9 BDT   0.00404
## 10 BGN   0.00932
## # … with 120 more rows
```
…
