ETC1010: Data Modelling and Computing
…
This returns a dataframe where each row is a variable. It also includes summaries of the number and percentage of missings for each variable in the dataset, and is sorted by the number of missings.

For example, Ozone has 37 missing values, and is about 24.2 percent missing.

---
class: bg-main1
# Missing data summaries: Cases

```r
miss_case_summary(dat_sf_clean)
```

```
## # A tibble: 405 x 3
##     case n_miss pct_miss
##    <int>  <int>    <dbl>
##  1    89      4     66.7
##  2   182      4     66.7
##  3   188      4     66.7
##  4   271      4     66.7
##  5     6      3     50  
##  6     7      3     50  
##  7    10      3     50  
##  8    29      3     50  
##  9    37      3     50  
## 10    39      3     50  
## # … with 395 more rows
```
…
Similarly, `miss_case_table` returns the same information, but for cases.

---
class: bg-main1
# Using summaries with `group_by`

```r
dat_sf_clean %>%
  group_by(month) %>%
  miss_var_summary()
```

```
## # A tibble: 60 x 4
##    month variable       n_miss pct_miss
##    <dbl> <chr>           <int>    <dbl>
##  1     1 temp_min            7    11.5 
##  2     1 temp_max            7    11.5 
##  3     1 temp_avg            7    11.5 
##  4     1 wind_speed_max      4     6.56
##  5     1 date                0     0   
##  6     2 temp_min            5    12.8 
##  7     2 temp_max            5    12.8 
##  8     2 temp_avg            5    12.8 
##  9     2 wind_speed_max      4    10.3 
## 10     2 date                0     0   
## # … with 50 more rows
```
…
<img src="lecture-5a-slides_files/figure-html/unnamed-chunk-11-1.png" width="60%" style="display: block; margin: auto;" />

---
class: bg-main1

# Example data: oceanbuoys

```r
oceanbuoys
```

```
## # A tibble: 736 x 8
##     year latitude longitude sea_temp_c air_temp_c humidity wind_ew wind_ns
##    <dbl>    <dbl>     <dbl>      <dbl>      <dbl>    <dbl>   <dbl>   <dbl>
##  1  1997        0      -110       27.6       27.1     79.6   -6.40    5.40
##  2  1997        0      -110       27.5       27.0     75.8   -5.30    5.30
##  3  1997        0      -110       27.6       27       76.5   -5.10    4.5 
##  4  1997        0      -110       27.6       26.9     76.2   -4.90    2.5 
##  5  1997        0      -110       27.6       26.8     76.4   -3.5     4.10
##  6  1997        0      -110       27.8       26.9     76.7   -4.40    1.60
##  7  1997        0      -110       28.0       27.0     76.5   -2       3.5 
##  8  1997        0      -110       28.0       27.1     78.3   -3.70    4.5 
##  9  1997        0      -110       28.0       27.2     78.6   -4.20    5   
## 10  1997        0      -110       28.0       27.2     76.9   -3.60    3.5 
## # … with 726 more rows
```
…
---
class: bg-main1

# Setup for missings

```r
tao_shadow <- bind_shadow(oceanbuoys)

tao_shadow
```

```
## # A tibble: 736 x 16
##     year latitude longitude sea_temp_c air_temp_c humidity wind_ew wind_ns year_NA
##    <dbl>    <dbl>     <dbl>      <dbl>      <dbl>    <dbl>   <dbl>   <dbl> <fct>  
##  1  1997        0      -110       27.6       27.1     79.6   -6.40    5.40 !NA    
##  2  1997        0      -110       27.5       27.0     75.8   -5.30    5.30 !NA    
##  3  1997        0      -110       27.6       27       76.5   -5.10    4.5  !NA    
##  4  1997        0      -110       27.6       26.9     76.2   -4.90    2.5  !NA    
##  5  1997        0      -110       27.6       26.8     76.4   -3.5     4.10 !NA    
##  6  1997        0      -110       27.8       26.9     76.7   -4.40    1.60 !NA    
##  7  1997        0      -110       28.0       27.0     76.5   -2       3.5  !NA    
##  8  1997        0      -110       28.0       27.1     78.3   -3.70    4.5  !NA    
##  9  1997        0      -110       28.0       27.2     78.6   -4.20    5    !NA    
## 10  1997        0      -110       28.0       27.2     76.9   -3.60    3.5  !NA    
## # … with 726 more rows, and 7 more variables: latitude_NA <fct>, longitude_NA <fct>,
## #   sea_temp_c_NA <fct>, air_temp_c_NA <fct>, humidity_NA <fct>, wind_ew_NA <fct>,
## #   wind_ns_NA <fct>
```

---
class: bg-main1
# Imputing the Mean (ignoring year).

```r
tao_imp_mean <- tao_shadow %>%
  mutate(sea_temp_c = impute_mean(sea_temp_c),
         air_temp_c = impute_mean(air_temp_c))

tao_shadow
```

```
## # A tibble: 736 x 16
##     year latitude longitude sea_temp_c air_temp_c humidity wind_ew wind_ns year_NA
##    <dbl>    <dbl>     <dbl>      <dbl>      <dbl>    <dbl>   <dbl>   <dbl> <fct>  
##  1  1997        0      -110       27.6       27.1     79.6   -6.40    5.40 !NA    
##  2  1997        0      -110       27.5       27.0     75.8   -5.30    5.30 !NA    
##  3  1997        0      -110       27.6       27       76.5   -5.10    4.5  !NA    
##  4  1997        0      -110       27.6       26.9     76.2   -4.90    2.5  !NA    
##  5  1997        0      -110       27.6       26.8     76.4   -3.5     4.10 !NA    
##  6  1997        0      -110       27.8       26.9     76.7   -4.40    1.60 !NA    
##  7  1997        0      -110       28.0       27.0     76.5   -2       3.5  !NA    
##  8  1997        0      -110       28.0       27.1     78.3   -3.70    4.5  !NA    
##  9  1997        0      -110       28.0       27.2     78.6   -4.20    5    !NA    
## 10  1997        0      -110       28.0       27.2     76.9   -3.60    3.5  !NA    
## # … with 726 more rows, and 7 more variables: latitude_NA <fct>, longitude_NA <fct>,
## #   sea_temp_c_NA <fct>, air_temp_c_NA <fct>, humidity_NA <fct>, wind_ew_NA <fct>,
## #   wind_ns_NA <fct>
```
…
