ETC1010 Practical Exam, Semester 2, 2019
…
elec_raw
# A tibble: 756 x 50
   id    date      t1    t2    t3    t4    t5    t6    t7    t8    t9   t10
   <chr> <chr>  <dbl> <dbl> <dbl> <dbl> <dbl> <dbl> <dbl> <dbl> <dbl> <dbl>
 1 200   meter1    NA    NA    NA    NA    NA    NA    30    NA    NA    NA
 2 300   20171     0     0     0     0     0     0     0     0     0     0
 3 300   20171     0     0     0     0     0     0     0     0     0     0
 4 300   20171     0     0     0     0     0     0     0     0     0     0
 5 300   20171     0     0     0     0     0     0     0     0     0     0
 6 300   20171     0     0     0     0     0     0     0     0     0     0
 7 300   20171     0     0     0     0     0     0     0     0     0     0
 8 400   1         43    NA    NA    NA    NA    NA    NA    NA    NA    NA
 9 400   44        44    NA    89    NA    NA    NA    NA    NA    NA    NA
10 400   45        48    NA    NA    NA    NA    NA    NA    NA    NA    NA
#  with 746 more rows, and 38 more variables: t11 <dbl>, t12 <dbl>,
#   t13 <dbl>, t14 <dbl>, t15 <dbl>, t16 <dbl>, t17 <dbl>, t18 <dbl>,
#   t19 <dbl>, t20 <dbl>, t21 <dbl>, t22 <dbl>, t23 <dbl>, t24 <dbl>,
#   t25 <dbl>, t26 <dbl>, t27 <dbl>, t28 <dbl>, t29 <dbl>, t30 <dbl>,
#   t31 <dbl>, t32 <dbl>, t33 <dbl>, t34 <dbl>, t35 <dbl>, t36 <dbl>,
#   t37 <dbl>, t38 <dbl>, t39 <dbl>, t40 <dbl>, t41 <dbl>, t42 <dbl>,
#   t43 <dbl>, t44 <dbl>, t45 <dbl>, t46 <dbl>, t47 <dbl>, t48 <dbl>
…
Convert the date column from a character to a date format, using a function from lubridate

Filter the date to only contain all dates the start of the year (dates equal to or larger than 01-01-2019).

# fill in the blanks here to follow the steps above
elec_prep <- elec_raw %>% 
  # think about which number id contains the most information
  filter(id == 300) %>% 
  # convert character format into date format using a function from lubridate
  mutate(date = ymd(date)) %>% 
  # Filter the date to only contain all dates the start of the year (dates equal to or larger than 01-01-2019).
  filter(date >= dmy("01-01-2019"))

elec_prep
# A tibble: 288 x 50
   id    date          t1    t2    t3    t4    t5    t6    t7    t8    t9
   <chr> <date>     <dbl> <dbl> <dbl> <dbl> <dbl> <dbl> <dbl> <dbl> <dbl>
 1 300   2019-01-01 0.55  0.138 0.131 0.106 0.1   0.069 0.056 0.056 0.056
 2 300   2019-01-02 0.063 0.056 0.056 0.056 0.044 0.056 0.05  0.056 0.05 
 3 300   2019-01-03 0.038 0.031 0.038 0.038 0.038 0.031 0.031 0.038 0.038
 4 300   2019-01-04 0.044 0.05  0.038 0.044 0.044 0.044 0.038 0.031 0.038
 5 300   2019-01-05 0.031 0.044 0.044 0.038 0.031 0.038 0.1   0.063 0.044
 6 300   2019-01-06 0.056 0.031 0.038 0.044 0.025 0.038 0.044 0.038 0.025
 7 300   2019-01-07 0.038 0.031 0.038 0.038 0.038 0.038 0.031 0.031 0.056
 8 300   2019-01-08 0.031 0.038 0.038 0.031 0.031 0.038 0.038 0.031 0.031
 9 300   2019-01-09 0.113 0.056 0.038 0.038 0.038 0.038 0.031 0.031 0.031
10 300   2019-01-10 0.031 0.031 0.038 0.038 0.038 0.031 0.031 0.038 0.038
#  with 278 more rows, and 39 more variables: t10 <dbl>, t11 <dbl>,
#   t12 <dbl>, t13 <dbl>, t14 <dbl>, t15 <dbl>, t16 <dbl>, t17 <dbl>,
#   t18 <dbl>, t19 <dbl>, t20 <dbl>, t21 <dbl>, t22 <dbl>, t23 <dbl>,
#   t24 <dbl>, t25 <dbl>, t26 <dbl>, t27 <dbl>, t28 <dbl>, t29 <dbl>,
#   t30 <dbl>, t31 <dbl>, t32 <dbl>, t33 <dbl>, t34 <dbl>, t35 <dbl>,
#   t36 <dbl>, t37 <dbl>, t38 <dbl>, t39 <dbl>, t40 <dbl>, t41 <dbl>,
#   t42 <dbl>, t43 <dbl>, t44 <dbl>, t45 <dbl>, t46 <dbl>, t47 <dbl>,
#   t48 <dbl>
…
Q3: Put the data into tidy format (2 points)

The columns t1 through to t48 represent half hourly times (t1 = first half hour, t2 = the second half hour  t48 is the 48th half hour).

Gather the data into a tidy format where you have columns: id, date, halfhour, and kwh (kilowatt hours).

elec_gather <- elec_prep %>% 
  gather(key = halfhour,  #; remove all the gather stuff, they should know how
                          #; to do this.
         value = kwh, 
         t1:t48)

elec_gather
# A tibble: 13,824 x 4
   id    date       halfhour   kwh
   <chr> <date>     <chr>    <dbl>
 1 300   2019-01-01 t1       0.55 
 2 300   2019-01-02 t1       0.063
 3 300   2019-01-03 t1       0.038
 4 300   2019-01-04 t1       0.044
 5 300   2019-01-05 t1       0.031
 6 300   2019-01-06 t1       0.056
 7 300   2019-01-07 t1       0.038
 8 300   2019-01-08 t1       0.031
 9 300   2019-01-09 t1       0.113
10 300   2019-01-10 t1       0.031
#  with 13,814 more rows
…
elec_hh  
# A tibble: 13,824 x 7
   id    date         kwh  hour wday  month  year
   <chr> <date>     <dbl> <dbl> <ord> <ord> <dbl>
 1 300   2019-01-01 0.55    0.5 Tue   Jan    2019
 2 300   2019-01-01 0.138   1   Tue   Jan    2019
 3 300   2019-01-01 0.131   1.5 Tue   Jan    2019
 4 300   2019-01-01 0.106   2   Tue   Jan    2019
 5 300   2019-01-01 0.1     2.5 Tue   Jan    2019
 6 300   2019-01-01 0.069   3   Tue   Jan    2019
 7 300   2019-01-01 0.056   3.5 Tue   Jan    2019
 8 300   2019-01-01 0.056   4   Tue   Jan    2019
 9 300   2019-01-01 0.056   4.5 Tue   Jan    2019
10 300   2019-01-01 0.056   5   Tue   Jan    2019
#  with 13,814 more rows
…
We have extracted temperature data at Melbourne airport from the Bureau of Meterology, and saved it in the max_temp.csv. The next questions relate to this weather data.

Q7A: Join the data (2 points)

Join the temperature and electricity data so you can draw insights on how maximum temperature and electricity usage data are connected.

max_temp <- readr::read_csv("max_temp.csv")

# join the elec data with max temp.
elec_temp <- elec %>% 
  left_join(max_temp, by = "date") #; omit this, they should know how to do a join

elec_temp
# A tibble: 13,824 x 11
   id    date         kwh  hour wday  month  year work  station_number
   <chr> <date>     <dbl> <dbl> <ord> <ord> <dbl> <chr>          <dbl>
 1 300   2019-01-01 0.55    0.5 Tue   Jan    2019 holi          86282
 2 300   2019-01-01 0.138   1   Tue   Jan    2019 holi          86282
 3 300   2019-01-01 0.131   1.5 Tue   Jan    2019 holi          86282
 4 300   2019-01-01 0.106   2   Tue   Jan    2019 holi          86282
 5 300   2019-01-01 0.1     2.5 Tue   Jan    2019 holi          86282
 6 300   2019-01-01 0.069   3   Tue   Jan    2019 holi          86282
 7 300   2019-01-01 0.056   3.5 Tue   Jan    2019 holi          86282
 8 300   2019-01-01 0.056   4   Tue   Jan    2019 holi          86282
 9 300   2019-01-01 0.056   4.5 Tue   Jan    2019 holi          86282
10 300   2019-01-01 0.056   5   Tue   Jan    2019 holi          86282
#  with 13,814 more rows, and 2 more variables: max_temperature <dbl>,
#   quality <chr>
…
