ETC1010: Data Modelling and Computing
…
.huge.left-code[
The case notifications table From [WHO](http://www.who.int/tb/country/data/download/en/).

Data is tidied here, with only counts for Australia.
]

.right-plot[

```r
tb_au
```

```
## # A tibble: 192 x 6
##    country   iso3   year count gender age  
##    <chr>     <chr> <dbl> <dbl> <chr>  <chr>
##  1 Australia AUS    1997     8 m      1524 
##  2 Australia AUS    1998    11 m      1524 
##  3 Australia AUS    1999    13 m      1524 
##  4 Australia AUS    2000    16 m      1524 
##  5 Australia AUS    2001    23 m      1524 
##  6 Australia AUS    2002    15 m      1524 
##  7 Australia AUS    2003    14 m      1524 
##  8 Australia AUS    2004    18 m      1524 
##  9 Australia AUS    2005    32 m      1524 
## 10 Australia AUS    2006    33 m      1524 
## # … with 182 more rows
```
…
