Assignment Final
…
library(readxl)
passengers <- read_xls("data/WebAirport_FY_1986-2017.xls", sheet=3, skip=6)

View(passengers)

update1 <- select(passengers, AIRPORT, Year, INBOUND, OUTBOUND, INBOUND__1, OUTBOUND__1)

colnames(update1)[colnames(update1)=="INBOUND"] <- "Domestic_Inbound"
colnames(update1)[colnames(update1)=="OUTBOUND"] <- "Domestic_Outbound"
colnames(update1)[colnames(update1)=="INBOUND__1"] <- "International_Inbound"
colnames(update1)[colnames(update1)=="OUTBOUND__1"] <- "International_Outbound"

update1

## # A tibble: 3,479 x 6
##    AIRPORT     Year   Domestic_Inbound Domestic_Outbou~ International_Inb~
##    <chr>       <chr>             <dbl>            <dbl>              <dbl>
##  1 TOTAL AUST~ 1985-~        14543928.        14543928.           2767413.
##  2 TOTAL AUST~ 1986-~        15001877.        15001877.           3154920.
##  3 TOTAL AUST~ 1987-~        16181355.        16181355.           3692976.
##  4 TOTAL AUST~ 1988-~        16497749.        16497826.           4022634.
##  5 TOTAL AUST~ 1989-~        11861519.        11861644.           4175315.
##  6 TOTAL AUST~ 1990-~        16536767.        16536767.           4257165.
##  7 TOTAL AUST~ 1991-~        20525193.        20525193.           4539042.
##  8 TOTAL AUST~ 1992-~        20923187.        20923187.           4902693.
##  9 TOTAL AUST~ 1993-~        22668912.        22668912.           5340017.
## 10 TOTAL AUST~ 1994-~        25091352.        25091227.           5830311.
## # ... with 3,469 more rows, and 1 more variable:
## #   International_Outbound <dbl>

update2<- update1 %>% gather(Domestic_Inbound, Domestic_Outbound, International_Inbound, International_Outbound, key = "flights", value = "revenue")

update2

## # A tibble: 13,916 x 4
##    AIRPORT         Year    flights            revenue
##    <chr>           <chr>   <chr>                <dbl>
##  1 TOTAL AUSTRALIA 1985-86 Domestic_Inbound 14543928.
##  2 TOTAL AUSTRALIA 1986-87 Domestic_Inbound 15001877.
##  3 TOTAL AUSTRALIA 1987-88 Domestic_Inbound 16181355.
##  4 TOTAL AUSTRALIA 1988-89 Domestic_Inbound 16497749.
##  5 TOTAL AUSTRALIA 1989-90 Domestic_Inbound 11861519.
##  6 TOTAL AUSTRALIA 1990-91 Domestic_Inbound 16536767.
##  7 TOTAL AUSTRALIA 1991-92 Domestic_Inbound 20525193.
##  8 TOTAL AUSTRALIA 1992-93 Domestic_Inbound 20923187.
##  9 TOTAL AUSTRALIA 1993-94 Domestic_Inbound 22668912.
## 10 TOTAL AUSTRALIA 1994-95 Domestic_Inbound 25091352.
## # ... with 13,906 more rows

update3 <- update2 %>% 
  separate("flights", c("type_of_flight","bound"))

update3

## # A tibble: 13,916 x 5
##    AIRPORT         Year    type_of_flight bound     revenue
##    <chr>           <chr>   <chr>          <chr>       <dbl>
##  1 TOTAL AUSTRALIA 1985-86 Domestic       Inbound 14543928.
##  2 TOTAL AUSTRALIA 1986-87 Domestic       Inbound 15001877.
##  3 TOTAL AUSTRALIA 1987-88 Domestic       Inbound 16181355.
##  4 TOTAL AUSTRALIA 1988-89 Domestic       Inbound 16497749.
##  5 TOTAL AUSTRALIA 1989-90 Domestic       Inbound 11861519.
##  6 TOTAL AUSTRALIA 1990-91 Domestic       Inbound 16536767.
##  7 TOTAL AUSTRALIA 1991-92 Domestic       Inbound 20525193.
##  8 TOTAL AUSTRALIA 1992-93 Domestic       Inbound 20923187.
##  9 TOTAL AUSTRALIA 1993-94 Domestic       Inbound 22668912.
## 10 TOTAL AUSTRALIA 1994-95 Domestic       Inbound 25091352.
## # ... with 13,906 more rows

update5 <- slice(update3, -(1:32))

update5

## # A tibble: 13,884 x 5
##    AIRPORT  Year    type_of_flight bound    revenue
##    <chr>    <chr>   <chr>          <chr>      <dbl>
##  1 ADELAIDE 1985-86 Domestic       Inbound  984010.
##  2 ADELAIDE 1986-87 Domestic       Inbound  973288.
##  3 ADELAIDE 1987-88 Domestic       Inbound 1047798.
##  4 ADELAIDE 1988-89 Domestic       Inbound 1075380.
##  5 ADELAIDE 1989-90 Domestic       Inbound  823571.
##  6 ADELAIDE 1990-91 Domestic       Inbound 1136965.
##  7 ADELAIDE 1991-92 Domestic       Inbound 1403103.
##  8 ADELAIDE 1992-93 Domestic       Inbound 1408479.
##  9 ADELAIDE 1993-94 Domestic       Inbound 1510831.
## 10 ADELAIDE 1994-95 Domestic       Inbound 1634705.
## # ... with 13,874 more rows
…
