ETC1010: Data Modelling and Computing
…
# What is tidy text?

```r
text_df %>%
  unnest_tokens(
    output = word,
    input = text,
    token = "words" # default option
  ) 
```

```
## # A tibble: 49 x 2
##     line word     
##    <int> <chr>    
##  1     1 this     
##  2     1 will     
##  3     1 be       
##  4     1 an       
##  5     1 uncertain
##  6     1 time     
##  7     1 for      
##  8     1 us       
##  9     1 my       
## 10     1 love     
## # … with 39 more rows
```
…
# What is unnesting?

```r
text_df %>%
  unnest_tokens(
    output = word,
    input = text,
    token = "characters"
  )
```

```
## # A tibble: 171 x 2
##     line word 
##    <int> <chr>
##  1     1 t    
##  2     1 h    
##  3     1 i    
##  4     1 s    
##  5     1 w    
##  6     1 i    
##  7     1 l    
##  8     1 l    
##  9     1 b    
## 10     1 e    
## # … with 161 more rows
```
…
# What is unnesting - ngrams length 2

```r
text_df %>%
  unnest_tokens(
    output = word,
    input = text,
    token = "ngrams",
    n = 2
  )
```

```
## # A tibble: 43 x 2
##     line word          
##    <int> <chr>         
##  1     1 this will     
##  2     1 will be       
##  3     1 be an         
##  4     1 an uncertain  
##  5     1 uncertain time
##  6     1 time for      
##  7     1 for us        
##  8     1 us my         
##  9     1 my love       
## 10     2 i can         
## # … with 33 more rows
```
…
# What is unnesting - ngrams length 3

```r
text_df %>%
  unnest_tokens(
    output = word,
    input = text,
    token = "ngrams",
    n = 3
  )
```

```
## # A tibble: 37 x 2
##     line word              
##    <int> <chr>             
##  1     1 this will be      
##  2     1 will be an        
##  3     1 be an uncertain   
##  4     1 an uncertain time 
##  5     1 uncertain time for
##  6     1 time for us       
##  7     1 for us my         
##  8     1 us my love        
##  9     2 i can hear        
## 10     2 can hear the      
## # … with 27 more rows
```
…
# Greatest Australian Album of all time (as voted by triple J)

```r
od_num_five <- genius_album(
  artist = "Powderfinger",
  album = "Odyssey Number Five"
)

od_num_five
```

```
## # A tibble: 310 x 4
##    track_title         track_n  line lyric                                                
##    <chr>                 <int> <int> <chr>                                                
##  1 Waiting For The Sun       1     1 This will be an uncertain time for us my love        
##  2 Waiting For The Sun       1     2 I can hear the echo of your voice in my head         
##  3 Waiting For The Sun       1     3 Singing my love                                      
##  4 Waiting For The Sun       1     4 I can see your face there in my hands my love        
##  5 Waiting For The Sun       1     5 I have been blessed by your grace and care my love   
##  6 Waiting For The Sun       1     6 Singing my love                                      
##  7 Waiting For The Sun       1     7 There's a place for us sitting here waiting for the …
##  8 Waiting For The Sun       1     8 And it calls me back into the safe arms that I know  
##  9 Waiting For The Sun       1     9 For every step you're further away from me my love   
## 10 Waiting For The Sun       1    10 I grow more unsteady on my feet my love              
## # … with 300 more rows
```
…
# Save for later

```r
powderfinger <- od_num_five %>%
  mutate(
    artist = "Powderfinger",
    album = "Odyssey Number Five"
  )

powderfinger
```

```
## # A tibble: 310 x 6
##    track_title      track_n  line lyric                             artist    album       
##    <chr>              <int> <int> <chr>                             <chr>     <chr>       
##  1 Waiting For The…       1     1 This will be an uncertain time f… Powderfi… Odyssey Num…
##  2 Waiting For The…       1     2 I can hear the echo of your voic… Powderfi… Odyssey Num…
##  3 Waiting For The…       1     3 Singing my love                   Powderfi… Odyssey Num…
##  4 Waiting For The…       1     4 I can see your face there in my … Powderfi… Odyssey Num…
##  5 Waiting For The…       1     5 I have been blessed by your grac… Powderfi… Odyssey Num…
##  6 Waiting For The…       1     6 Singing my love                   Powderfi… Odyssey Num…
##  7 Waiting For The…       1     7 There's a place for us sitting h… Powderfi… Odyssey Num…
##  8 Waiting For The…       1     8 And it calls me back into the sa… Powderfi… Odyssey Num…
##  9 Waiting For The…       1     9 For every step you're further aw… Powderfi… Odyssey Num…
## 10 Waiting For The…       1    10 I grow more unsteady on my feet … Powderfi… Odyssey Num…
## # … with 300 more rows
```
…
---
class: bg-main1

# Tidy up the lyrics!

```r
powderfinger_lyrics <- powderfinger %>%
  unnest_tokens(output = word,
                input = lyric)

powderfinger_lyrics
```

```
## # A tibble: 2,076 x 6
##    track_title         track_n  line artist       album               word     
##    <chr>                 <int> <int> <chr>        <chr>               <chr>    
##  1 Waiting For The Sun       1     1 Powderfinger Odyssey Number Five this     
##  2 Waiting For The Sun       1     1 Powderfinger Odyssey Number Five will     
##  3 Waiting For The Sun       1     1 Powderfinger Odyssey Number Five be       
##  4 Waiting For The Sun       1     1 Powderfinger Odyssey Number Five an       
##  5 Waiting For The Sun       1     1 Powderfinger Odyssey Number Five uncertain
##  6 Waiting For The Sun       1     1 Powderfinger Odyssey Number Five time     
##  7 Waiting For The Sun       1     1 Powderfinger Odyssey Number Five for      
##  8 Waiting For The Sun       1     1 Powderfinger Odyssey Number Five us       
##  9 Waiting For The Sun       1     1 Powderfinger Odyssey Number Five my       
## 10 Waiting For The Sun       1     1 Powderfinger Odyssey Number Five love     
## # … with 2,066 more rows
```

---
class: bg-main1

# What are the most common words?

```r
powderfinger_lyrics %>%
  count(word) %>%
  arrange(-n)
```

```
## # A tibble: 451 x 2
##    word      n
##    <chr> <int>
##  1 the      93
##  2 you      77
##  3 i        55
##  4 and      54
##  5 to       48
##  6 it       42
##  7 in       39
##  8 a        38
##  9 for      33
## 10 me       32
## # … with 441 more rows
```
…
- They usually refer to the most common words in a language, but there is not a single list of stop words used by all natural language processing tools.
]

---
class: bg-main1

# English stop words

```r
get_stopwords()
```

```
## # A tibble: 175 x 2
##    word      lexicon 
##    <chr>     <chr>   
##  1 i         snowball
##  2 me        snowball
##  3 my        snowball
##  4 myself    snowball
##  5 we        snowball
##  6 our       snowball
##  7 ours      snowball
##  8 ourselves snowball
##  9 you       snowball
## 10 your      snowball
## # … with 165 more rows
```

---
class: bg-main1

# Spanish stop words

```r
get_stopwords(language = "es")
```

```
## # A tibble: 308 x 2
##    word  lexicon 
##    <chr> <chr>   
##  1 de    snowball
##  2 la    snowball
##  3 que   snowball
##  4 el    snowball
##  5 en    snowball
##  6 y     snowball
##  7 a     snowball
##  8 los   snowball
##  9 del   snowball
## 10 se    snowball
## # … with 298 more rows
```
---
class: bg-main1

# Various lexicons

.huge[
See `?get_stopwords` for more info.
]

```r
get_stopwords(source = "smart")
```

```
## # A tibble: 571 x 2
##    word        lexicon
##    <chr>       <chr>  
##  1 a           smart  
##  2 a's         smart  
##  3 able        smart  
##  4 about       smart  
##  5 above       smart  
##  6 according   smart  
##  7 accordingly smart  
##  8 across      smart  
##  9 actually    smart  
## 10 after       smart  
## # … with 561 more rows
```

---
class: bg-main1

# What are the most common words?

```r
powderfinger_lyrics
```

```
## # A tibble: 2,076 x 6
##    track_title         track_n  line artist       album               word     
##    <chr>                 <int> <int> <chr>        <chr>               <chr>    
##  1 Waiting For The Sun       1     1 Powderfinger Odyssey Number Five this     
##  2 Waiting For The Sun       1     1 Powderfinger Odyssey Number Five will     
##  3 Waiting For The Sun       1     1 Powderfinger Odyssey Number Five be       
##  4 Waiting For The Sun       1     1 Powderfinger Odyssey Number Five an       
##  5 Waiting For The Sun       1     1 Powderfinger Odyssey Number Five uncertain
##  6 Waiting For The Sun       1     1 Powderfinger Odyssey Number Five time     
##  7 Waiting For The Sun       1     1 Powderfinger Odyssey Number Five for      
##  8 Waiting For The Sun       1     1 Powderfinger Odyssey Number Five us       
##  9 Waiting For The Sun       1     1 Powderfinger Odyssey Number Five my       
## 10 Waiting For The Sun       1     1 Powderfinger Odyssey Number Five love     
## # … with 2,066 more rows
```

---
class: bg-main1

# What are the most common words?

```r
stopwords_smart <- get_stopwords(source = "smart")

powderfinger_lyrics %>%
  anti_join(stopwords_smart)
```

```
## # A tibble: 649 x 6
##    track_title         track_n  line artist       album               word     
##    <chr>                 <int> <int> <chr>        <chr>               <chr>    
##  1 Waiting For The Sun       1     1 Powderfinger Odyssey Number Five uncertain
##  2 Waiting For The Sun       1     1 Powderfinger Odyssey Number Five time     
##  3 Waiting For The Sun       1     1 Powderfinger Odyssey Number Five love     
##  4 Waiting For The Sun       1     2 Powderfinger Odyssey Number Five hear     
##  5 Waiting For The Sun       1     2 Powderfinger Odyssey Number Five echo     
##  6 Waiting For The Sun       1     2 Powderfinger Odyssey Number Five voice    
##  7 Waiting For The Sun       1     2 Powderfinger Odyssey Number Five head     
##  8 Waiting For The Sun       1     3 Powderfinger Odyssey Number Five singing  
##  9 Waiting For The Sun       1     3 Powderfinger Odyssey Number Five love     
## 10 Waiting For The Sun       1     4 Powderfinger Odyssey Number Five face     
## # … with 639 more rows
```

---
class: bg-main1

# What are the most common words?

```r
powderfinger_lyrics %>%
  anti_join(stopwords_smart) %>%
  count(word) %>%
  arrange(-n)
```

```
## # A tibble: 287 x 2
##    word         n
##    <chr>    <int>
##  1 back        16
##  2 time        15
##  3 waiting     13
##  4 coming      10
##  5 slowly      10
##  6 days         9
##  7 love         9
##  8 creeping     8
##  9 grace        8
## 10 place        8
## # … with 277 more rows
```
…
---
class: bg-main1

# Sentiment lexicons

.pull-left[

```r
get_sentiments("afinn")
```

```
## # A tibble: 2,477 x 2
##    word       value
##    <chr>      <dbl>
##  1 abandon       -2
##  2 abandoned     -2
##  3 abandons      -2
##  4 abducted      -2
##  5 abduction     -2
##  6 abductions    -2
##  7 abhor         -3
##  8 abhorred      -3
##  9 abhorrent     -3
## 10 abhors        -3
## # … with 2,467 more rows
```
]

.pull-right[

```r
get_sentiments("bing")
```

```
## # A tibble: 6,786 x 2
##    word        sentiment
##    <chr>       <chr>    
##  1 2-faces     negative 
##  2 abnormal    negative 
##  3 abolish     negative 
##  4 abominable  negative 
##  5 abominably  negative 
##  6 abominate   negative 
##  7 abomination negative 
##  8 abort       negative 
##  9 aborted     negative 
## 10 aborts      negative 
## # … with 6,776 more rows
```
]

---
class: bg-main1

# Sentiment lexicons

.pull-left[

```r
get_sentiments(lexicon = "bing")
```

```
## # A tibble: 6,786 x 2
##    word        sentiment
##    <chr>       <chr>    
##  1 2-faces     negative 
##  2 abnormal    negative 
##  3 abolish     negative 
##  4 abominable  negative 
##  5 abominably  negative 
##  6 abominate   negative 
##  7 abomination negative 
##  8 abort       negative 
##  9 aborted     negative 
## 10 aborts      negative 
## # … with 6,776 more rows
```
]

.pull-right[

```r
get_sentiments(lexicon = "loughran")
```

```
## # A tibble: 4,150 x 2
##    word         sentiment
##    <chr>        <chr>    
##  1 abandon      negative 
##  2 abandoned    negative 
##  3 abandoning   negative 
##  4 abandonment  negative 
##  5 abandonments negative 
##  6 abandons     negative 
##  7 abdicated    negative 
##  8 abdicates    negative 
##  9 abdicating   negative 
## 10 abdication   negative 
## # … with 4,140 more rows
```
…
# Sentiments in Powderfinger's lyrics

```r
sentiments_bing <- get_sentiments("bing")

powderfinger_lyrics %>%
  inner_join(sentiments_bing) %>%
  count(sentiment, word) %>%
  arrange(-n)
```

```
## # A tibble: 70 x 3
##    sentiment word         n
##    <chr>     <chr>    <int>
##  1 positive  like        15
##  2 negative  slowly      10
##  3 positive  love         9
##  4 negative  creeping     8
##  5 positive  grace        8
##  6 positive  welcome      8
##  7 positive  right        7
##  8 positive  happy        6
##  9 positive  enough       5
## 10 positive  well         5
## # … with 60 more rows
```
…
---
class: bg-main1

# Combine data:

```r
ldoc <- bind_rows(powderfinger,
                  stripes,
                  midnight)

ldoc
```

```
## # A tibble: 1,047 x 6
##    track_title      track_n  line lyric                             artist    album       
##    <chr>              <int> <int> <chr>                             <chr>     <chr>       
##  1 Waiting For The…       1     1 This will be an uncertain time f… Powderfi… Odyssey Num…
##  2 Waiting For The…       1     2 I can hear the echo of your voic… Powderfi… Odyssey Num…
##  3 Waiting For The…       1     3 Singing my love                   Powderfi… Odyssey Num…
##  4 Waiting For The…       1     4 I can see your face there in my … Powderfi… Odyssey Num…
##  5 Waiting For The…       1     5 I have been blessed by your grac… Powderfi… Odyssey Num…
##  6 Waiting For The…       1     6 Singing my love                   Powderfi… Odyssey Num…
##  7 Waiting For The…       1     7 There's a place for us sitting h… Powderfi… Odyssey Num…
##  8 Waiting For The…       1     8 And it calls me back into the sa… Powderfi… Odyssey Num…
##  9 Waiting For The…       1     9 For every step you're further aw… Powderfi… Odyssey Num…
## 10 Waiting For The…       1    10 I grow more unsteady on my feet … Powderfi… Odyssey Num…
## # … with 1,037 more rows
```

---
class: bg-main1

# LDOC lyrics

```r
ldoc_lyrics <- ldoc %>%
  unnest_tokens(word, lyric)

ldoc_lyrics
```

```
## # A tibble: 7,618 x 6
##    track_title         track_n  line artist       album               word     
##    <chr>                 <int> <int> <chr>        <chr>               <chr>    
##  1 Waiting For The Sun       1     1 Powderfinger Odyssey Number Five this     
##  2 Waiting For The Sun       1     1 Powderfinger Odyssey Number Five will     
##  3 Waiting For The Sun       1     1 Powderfinger Odyssey Number Five be       
##  4 Waiting For The Sun       1     1 Powderfinger Odyssey Number Five an       
##  5 Waiting For The Sun       1     1 Powderfinger Odyssey Number Five uncertain
##  6 Waiting For The Sun       1     1 Powderfinger Odyssey Number Five time     
##  7 Waiting For The Sun       1     1 Powderfinger Odyssey Number Five for      
##  8 Waiting For The Sun       1     1 Powderfinger Odyssey Number Five us       
##  9 Waiting For The Sun       1     1 Powderfinger Odyssey Number Five my       
## 10 Waiting For The Sun       1     1 Powderfinger Odyssey Number Five love     
## # … with 7,608 more rows
```

---
class: bg-main1

# Common LDOC lyrics - Without stop words:

```r
ldoc_lyrics %>%
  anti_join(stopwords_smart) %>%
  count(artist, word, sort = TRUE) # alternative way to sort
```

```
## # A tibble: 1,082 x 3
##    artist            word          n
##    <chr>             <chr>     <int>
##  1 The White Stripes girl         35
##  2 The White Stripes home         33
##  3 The Midnight      lost         32
##  4 The White Stripes button       26
##  5 The White Stripes love         26
##  6 The Midnight      boy          25
##  7 The White Stripes cold         24
##  8 The Midnight      kids         20
##  9 The White Stripes good         20
## 10 The Midnight      strangers    19
## # … with 1,072 more rows
```

---
class: bg-main1

# Common LDOC lyrics - With stop words:

```r
ldoc_lyrics_counts <- ldoc_lyrics %>%
  count(artist, word, sort = TRUE)

ldoc_lyrics_counts
```

```
## # A tibble: 1,619 x 3
##    artist            word      n
##    <chr>             <chr> <int>
##  1 The White Stripes to      139
##  2 The White Stripes the     124
##  3 The White Stripes i       120
##  4 The White Stripes you     116
##  5 The Midnight      the     108
##  6 The White Stripes do      102
##  7 Powderfinger      the      93
##  8 The White Stripes a        89
##  9 The White Stripes and      82
## 10 Powderfinger      you      77
## # … with 1,609 more rows
```
…
---
class: bg-main1

# Calculating tf-idf: Perhaps not that exciting... What's the issue?

```r
ldoc_words <- ldoc_lyrics_counts %>%
  bind_tf_idf(term = word, document = artist, n = n)

ldoc_words
```

```
## # A tibble: 1,619 x 6
##    artist            word      n     tf   idf tf_idf
##    <chr>             <chr> <int>  <dbl> <dbl>  <dbl>
##  1 The White Stripes to      139 0.0366     0      0
##  2 The White Stripes the     124 0.0326     0      0
##  3 The White Stripes i       120 0.0316     0      0
##  4 The White Stripes you     116 0.0305     0      0
##  5 The Midnight      the     108 0.0620     0      0
##  6 The White Stripes do      102 0.0268     0      0
##  7 Powderfinger      the      93 0.0448     0      0
##  8 The White Stripes a        89 0.0234     0      0
##  9 The White Stripes and      82 0.0216     0      0
## 10 Powderfinger      you      77 0.0371     0      0
## # … with 1,609 more rows
```

---
class: bg-main1

# Re-calculating tf-idf

```r
ldoc_words %>%
  bind_tf_idf(term = word, document = artist, n = n) %>%
  arrange(-tf_idf)
```

```
## # A tibble: 1,619 x 6
##    artist            word          n      tf   idf  tf_idf
##    <chr>             <chr>     <int>   <dbl> <dbl>   <dbl>
##  1 The Midnight      kids         20 0.0115  1.10  0.0126 
##  2 The Midnight      strangers    19 0.0109  1.10  0.0120 
##  3 The Midnight      woah         13 0.00746 1.10  0.00820
##  4 The White Stripes button       26 0.00684 1.10  0.00752
##  5 The Midnight      lost         32 0.0184  0.405 0.00745
##  6 The Midnight      was          32 0.0184  0.405 0.00745
##  7 The White Stripes her          25 0.00658 1.10  0.00723
##  8 The White Stripes cold         24 0.00632 1.10  0.00694
##  9 The Midnight      monsters     11 0.00631 1.10  0.00694
## 10 The White Stripes oh           63 0.0166  0.405 0.00672
## # … with 1,609 more rows
```
…
