Week 3 Assignment
…
##  Conflicts  tidyverse_conflicts() 
##  dplyr::filter() masks stats::filter()
##  dplyr::lag()    masks stats::lag()

library(tidyr)
library(dplyr)
library(readxl)
passengers <- read_xls("data/WebAirport_FY_1986-2017.xls", sheet=3, skip=6)

#summary(passengers)

#names(passengers)
(passengers <- passengers[-c(1:32), c(2, 3, 5:13)])

## # A tibble: 3,447 x 11
##    AIRPORT  Year   INBOUND OUTBOUND  TOTAL INBOUND__1 OUTBOUND__1 TOTAL__1
##    <chr>    <chr>    <dbl>    <dbl>  <dbl>      <dbl>       <dbl>    <dbl>
##  1 ADELAIDE 1985-  9.84e5  978987. 1.96e6     59833.      58726.  118559.
##  2 ADELAIDE 1986-  9.73e5  970841. 1.94e6     71595.      67288.  138883.
##  3 ADELAIDE 1987-  1.05e6 1049947. 2.10e6     72988.      68531.  141519.
##  4 ADELAIDE 1988-  1.08e6 1076670. 2.15e6     71287.      67146.  138433.
##  5 ADELAIDE 1989-  8.24e5  833597. 1.66e6     86037.      82222.  168259.
##  6 ADELAIDE 1990-  1.14e6 1139324. 2.28e6     94041.      90833.  184874.
##  7 ADELAIDE 1991-  1.40e6 1409188. 2.81e6     98254.      95404.  193658.
##  8 ADELAIDE 1992-  1.41e6 1411384. 2.82e6    110199.     103296.  213495.
##  9 ADELAIDE 1993-  1.51e6 1523388. 3.03e6    111815.     104811.  216626.
## 10 ADELAIDE 1994-  1.63e6 1652008. 3.29e6    111148.     101816.  212964.
## # ... with 3,437 more rows, and 3 more variables: INBOUND__2 <dbl>,
## #   OUTBOUND__2 <dbl>, TOTAL__2 <dbl>

passengers_plot2 <- passengers %>%
  select(-TOTAL, -TOTAL__1, -TOTAL__2, -INBOUND__2, -OUTBOUND__2) %>%
  rename(IN = INBOUND, OUT = OUTBOUND, IN = INBOUND__1, OUT = OUTBOUND__1) %>%
  gather(Domestic, Count, c(3, 4)) %>%
  gather(International, Count, c(3, 4))

passengers_plot1 <- passengers_plot2 %>%
  gather(type_of_flight, Bound, Domestic, International) %>%
  mutate(Count = as.integer(Count))

(passengersQ1 <- passengers_plot1[, c(-3)])

## # A tibble: 27,576 x 4
##    AIRPORT  Year    type_of_flight Bound
##    <chr>    <chr>   <chr>          <chr>
##  1 ADELAIDE 1985-86 Domestic       IN   
##  2 ADELAIDE 1986-87 Domestic       IN   
##  3 ADELAIDE 1987-88 Domestic       IN   
##  4 ADELAIDE 1988-89 Domestic       IN   
##  5 ADELAIDE 1989-90 Domestic       IN   
##  6 ADELAIDE 1990-91 Domestic       IN   
##  7 ADELAIDE 1991-92 Domestic       IN   
##  8 ADELAIDE 1992-93 Domestic       IN   
##  9 ADELAIDE 1993-94 Domestic       IN   
## 10 ADELAIDE 1994-95 Domestic       IN   
## # ... with 27,566 more rows

#passengersQ1 %>% count(type_of_flight)

Question 2: Bar Chart

library(tidyverse)
library(tidyr)
library(dplyr)
library(readxl)
passengers <- read_xls("data/WebAirport_FY_1986-2017.xls", sheet=3, skip=6)
passengers

## # A tibble: 3,479 x 14
##    X__1        AIRPORT    Year   Rank  INBOUND OUTBOUND   TOTAL INBOUND__1
##    <chr>       <chr>      <chr>  <chr>   <dbl>    <dbl>   <dbl>      <dbl>
##  1 TOTAL AUST TOTAL AUS 1985- -      1.45e7   1.45e7  2.91e7   2767413.
##  2 TOTAL AUST TOTAL AUS 1986- -      1.50e7   1.50e7  3.00e7   3154920.
##  3 TOTAL AUST TOTAL AUS 1987- -      1.62e7   1.62e7  3.24e7   3692976.
##  4 TOTAL AUST TOTAL AUS 1988- -      1.65e7   1.65e7  3.30e7   4022634.
##  5 TOTAL AUST TOTAL AUS 1989- -      1.19e7   1.19e7  2.37e7   4175315.
##  6 TOTAL AUST TOTAL AUS 1990- -      1.65e7   1.65e7  3.31e7   4257165.
##  7 TOTAL AUST TOTAL AUS 1991- -      2.05e7   2.05e7  4.11e7   4539042.
##  8 TOTAL AUST TOTAL AUS 1992- -      2.09e7   2.09e7  4.18e7   4902693.
##  9 TOTAL AUST TOTAL AUS 1993- -      2.27e7   2.27e7  4.53e7   5340017.
## 10 TOTAL AUST TOTAL AUS 1994- -      2.51e7   2.51e7  5.02e7   5830311.
## # ... with 3,469 more rows, and 6 more variables: OUTBOUND__1 <dbl>,
## #   TOTAL__1 <dbl>, INBOUND__2 <dbl>, OUTBOUND__2 <dbl>, TOTAL__2 <dbl>,
## #   X__2 <chr>

#summary(passengers)

#names(passengers)
(passengers <- passengers[-c(1:32), c(2, 3, 5:13)])

## # A tibble: 3,447 x 11
##    AIRPORT  Year   INBOUND OUTBOUND  TOTAL INBOUND__1 OUTBOUND__1 TOTAL__1
##    <chr>    <chr>    <dbl>    <dbl>  <dbl>      <dbl>       <dbl>    <dbl>
##  1 ADELAIDE 1985-  9.84e5  978987. 1.96e6     59833.      58726.  118559.
##  2 ADELAIDE 1986-  9.73e5  970841. 1.94e6     71595.      67288.  138883.
##  3 ADELAIDE 1987-  1.05e6 1049947. 2.10e6     72988.      68531.  141519.
##  4 ADELAIDE 1988-  1.08e6 1076670. 2.15e6     71287.      67146.  138433.
##  5 ADELAIDE 1989-  8.24e5  833597. 1.66e6     86037.      82222.  168259.
##  6 ADELAIDE 1990-  1.14e6 1139324. 2.28e6     94041.      90833.  184874.
##  7 ADELAIDE 1991-  1.40e6 1409188. 2.81e6     98254.      95404.  193658.
##  8 ADELAIDE 1992-  1.41e6 1411384. 2.82e6    110199.     103296.  213495.
##  9 ADELAIDE 1993-  1.51e6 1523388. 3.03e6    111815.     104811.  216626.
## 10 ADELAIDE 1994-  1.63e6 1652008. 3.29e6    111148.     101816.  212964.
## # ... with 3,437 more rows, and 3 more variables: INBOUND__2 <dbl>,
## #   OUTBOUND__2 <dbl>, TOTAL__2 <dbl>

passengers_plot2 <- passengers %>%
  select(-TOTAL, -TOTAL__1, -TOTAL__2, -INBOUND__2, -OUTBOUND__2) %>%
  rename(IN = INBOUND, OUT = OUTBOUND, IN = INBOUND__1, OUT = OUTBOUND__1) %>%
  gather(Domestic, Count, c(3, 4)) %>%
  gather(International, Count, c(3, 4))

passengers_plot1 <- passengers_plot2 %>%
  gather(type_of_flight, Bound, Domestic, International) %>%
  mutate(Count = as.integer(Count))
passengers_plot1

## # A tibble: 27,576 x 5
##    AIRPORT  Year     Count type_of_flight Bound
##    <chr>    <chr>    <int> <chr>          <chr>
##  1 ADELAIDE 1985-86  59833 Domestic       IN   
##  2 ADELAIDE 1986-87  71595 Domestic       IN   
##  3 ADELAIDE 1987-88  72988 Domestic       IN   
##  4 ADELAIDE 1988-89  71287 Domestic       IN   
##  5 ADELAIDE 1989-90  86037 Domestic       IN   
##  6 ADELAIDE 1990-91  94041 Domestic       IN   
##  7 ADELAIDE 1991-92  98254 Domestic       IN   
##  8 ADELAIDE 1992-93 110199 Domestic       IN   
##  9 ADELAIDE 1993-94 111815 Domestic       IN   
## 10 ADELAIDE 1994-95 111148 Domestic       IN   
## # ... with 27,566 more rows

(passengersQ1 <- passengers_plot1[, c(-3)])

## # A tibble: 27,576 x 4
##    AIRPORT  Year    type_of_flight Bound
##    <chr>    <chr>   <chr>          <chr>
##  1 ADELAIDE 1985-86 Domestic       IN   
##  2 ADELAIDE 1986-87 Domestic       IN   
##  3 ADELAIDE 1987-88 Domestic       IN   
##  4 ADELAIDE 1988-89 Domestic       IN   
##  5 ADELAIDE 1989-90 Domestic       IN   
##  6 ADELAIDE 1990-91 Domestic       IN   
##  7 ADELAIDE 1991-92 Domestic       IN   
##  8 ADELAIDE 1992-93 Domestic       IN   
##  9 ADELAIDE 1993-94 Domestic       IN   
## 10 ADELAIDE 1994-95 Domestic       IN   
## # ... with 27,566 more rows
…
Question 3: Domestic Scatter Plot

library(tidyverse)
library(tidyr)
library(dplyr)
library(readxl)
passengers <- read_xls("data/WebAirport_FY_1986-2017.xls", sheet=3, skip=6)

#summary(passengers)

#names(passengers)
(passengers1 <- passengers[-c(1:32), c(2, 3, 5:13)])

## # A tibble: 3,447 x 11
##    AIRPORT  Year   INBOUND OUTBOUND  TOTAL INBOUND__1 OUTBOUND__1 TOTAL__1
##    <chr>    <chr>    <dbl>    <dbl>  <dbl>      <dbl>       <dbl>    <dbl>
##  1 ADELAIDE 1985-  9.84e5  978987. 1.96e6     59833.      58726.  118559.
##  2 ADELAIDE 1986-  9.73e5  970841. 1.94e6     71595.      67288.  138883.
##  3 ADELAIDE 1987-  1.05e6 1049947. 2.10e6     72988.      68531.  141519.
##  4 ADELAIDE 1988-  1.08e6 1076670. 2.15e6     71287.      67146.  138433.
##  5 ADELAIDE 1989-  8.24e5  833597. 1.66e6     86037.      82222.  168259.
##  6 ADELAIDE 1990-  1.14e6 1139324. 2.28e6     94041.      90833.  184874.
##  7 ADELAIDE 1991-  1.40e6 1409188. 2.81e6     98254.      95404.  193658.
##  8 ADELAIDE 1992-  1.41e6 1411384. 2.82e6    110199.     103296.  213495.
##  9 ADELAIDE 1993-  1.51e6 1523388. 3.03e6    111815.     104811.  216626.
## 10 ADELAIDE 1994-  1.63e6 1652008. 3.29e6    111148.     101816.  212964.
## # ... with 3,437 more rows, and 3 more variables: INBOUND__2 <dbl>,
## #   OUTBOUND__2 <dbl>, TOTAL__2 <dbl>
…
Question 4: International Scatter Plot

library(tidyverse)
library(tidyr)
library(dplyr)
library(readxl)
passengers <- read_xls("data/WebAirport_FY_1986-2017.xls", sheet=3, skip=6)

#summary(passengers)

#names(passengers)
(passengers1 <- passengers[-c(1:32), c(2, 3, 5:13)])

## # A tibble: 3,447 x 11
##    AIRPORT  Year   INBOUND OUTBOUND  TOTAL INBOUND__1 OUTBOUND__1 TOTAL__1
##    <chr>    <chr>    <dbl>    <dbl>  <dbl>      <dbl>       <dbl>    <dbl>
##  1 ADELAIDE 1985-  9.84e5  978987. 1.96e6     59833.      58726.  118559.
##  2 ADELAIDE 1986-  9.73e5  970841. 1.94e6     71595.      67288.  138883.
##  3 ADELAIDE 1987-  1.05e6 1049947. 2.10e6     72988.      68531.  141519.
##  4 ADELAIDE 1988-  1.08e6 1076670. 2.15e6     71287.      67146.  138433.
##  5 ADELAIDE 1989-  8.24e5  833597. 1.66e6     86037.      82222.  168259.
##  6 ADELAIDE 1990-  1.14e6 1139324. 2.28e6     94041.      90833.  184874.
##  7 ADELAIDE 1991-  1.40e6 1409188. 2.81e6     98254.      95404.  193658.
##  8 ADELAIDE 1992-  1.41e6 1411384. 2.82e6    110199.     103296.  213495.
##  9 ADELAIDE 1993-  1.51e6 1523388. 3.03e6    111815.     104811.  216626.
## 10 ADELAIDE 1994-  1.63e6 1652008. 3.29e6    111148.     101816.  212964.
## # ... with 3,437 more rows, and 3 more variables: INBOUND__2 <dbl>,
## #   OUTBOUND__2 <dbl>, TOTAL__2 <dbl>
…
