ETC1010: Data Modelling and Computing
…
---
class: bg-main1

# flights

```r
library(nycflights13)
flights
```

```
## # A tibble: 336,776 x 19
##     year month   day dep_time sched_dep_time dep_delay arr_time sched_arr_time arr_delay
##    <int> <int> <int>    <int>          <int>     <dbl>    <int>          <int>     <dbl>
##  1  2013     1     1      517            515         2      830            819        11
##  2  2013     1     1      533            529         4      850            830        20
##  3  2013     1     1      542            540         2      923            850        33
##  4  2013     1     1      544            545        -1     1004           1022       -18
##  5  2013     1     1      554            600        -6      812            837       -25
##  6  2013     1     1      554            558        -4      740            728        12
##  7  2013     1     1      555            600        -5      913            854        19
##  8  2013     1     1      557            600        -3      709            723       -14
##  9  2013     1     1      557            600        -3      838            846        -8
## 10  2013     1     1      558            600        -2      753            745         8
## # … with 336,766 more rows, and 10 more variables: carrier <chr>, flight <int>,
## #   tailnum <chr>, origin <chr>, dest <chr>, air_time <dbl>, distance <dbl>, hour <dbl>,
## #   minute <dbl>, time_hour <dttm>
```
…
---
class: bg-main1

# airports

```r
airports
```

```
## # A tibble: 1,458 x 8
##    faa   name                             lat    lon   alt    tz dst   tzone              
##    <chr> <chr>                          <dbl>  <dbl> <int> <dbl> <chr> <chr>              
##  1 04G   Lansdowne Airport               41.1  -80.6  1044    -5 A     America/New_York   
##  2 06A   Moton Field Municipal Airport   32.5  -85.7   264    -6 A     America/Chicago    
##  3 06C   Schaumburg Regional             42.0  -88.1   801    -6 A     America/Chicago    
##  4 06N   Randall Airport                 41.4  -74.4   523    -5 A     America/New_York   
##  5 09J   Jekyll Island Airport           31.1  -81.4    11    -5 A     America/New_York   
##  6 0A9   Elizabethton Municipal Airport  36.4  -82.2  1593    -5 A     America/New_York   
##  7 0G6   Williams County Airport         41.5  -84.5   730    -5 A     America/New_York   
##  8 0G7   Finger Lakes Regional Airport   42.9  -76.8   492    -5 A     America/New_York   
##  9 0P2   Shoestring Aviation Airfield    39.8  -76.6  1000    -5 U     America/New_York   
## 10 0S9   Jefferson County Intl           48.1 -123.    108    -8 A     America/Los_Angeles
## # … with 1,448 more rows
```

---
class: bg-main1

# print-planes

```r
planes
```

```
## # A tibble: 3,322 x 9
##    tailnum  year type                manufacturer    model    engines seats speed engine  
##    <chr>   <int> <chr>               <chr>           <chr>      <int> <int> <int> <chr>   
##  1 N10156   2004 Fixed wing multi e… EMBRAER         EMB-145…       2    55    NA Turbo-f…
##  2 N102UW   1998 Fixed wing multi e… AIRBUS INDUSTR… A320-214       2   182    NA Turbo-f…
##  3 N103US   1999 Fixed wing multi e… AIRBUS INDUSTR… A320-214       2   182    NA Turbo-f…
##  4 N104UW   1999 Fixed wing multi e… AIRBUS INDUSTR… A320-214       2   182    NA Turbo-f…
##  5 N10575   2002 Fixed wing multi e… EMBRAER         EMB-145…       2    55    NA Turbo-f…
##  6 N105UW   1999 Fixed wing multi e… AIRBUS INDUSTR… A320-214       2   182    NA Turbo-f…
##  7 N107US   1999 Fixed wing multi e… AIRBUS INDUSTR… A320-214       2   182    NA Turbo-f…
##  8 N108UW   1999 Fixed wing multi e… AIRBUS INDUSTR… A320-214       2   182    NA Turbo-f…
##  9 N109UW   1999 Fixed wing multi e… AIRBUS INDUSTR… A320-214       2   182    NA Turbo-f…
## 10 N110UW   1999 Fixed wing multi e… AIRBUS INDUSTR… A320-214       2   182    NA Turbo-f…
## # … with 3,312 more rows
```

---
class: bg-main1

# weather

```r
weather
```

```
## # A tibble: 26,115 x 15
##    origin  year month   day  hour  temp  dewp humid wind_dir wind_speed wind_gust precip
##    <chr>  <dbl> <dbl> <int> <int> <dbl> <dbl> <dbl>    <dbl>      <dbl>     <dbl>  <dbl>
##  1 EWR     2013     1     1     1  39.0  26.1  59.4      270      10.4         NA      0
##  2 EWR     2013     1     1     2  39.0  27.0  61.6      250       8.06        NA      0
##  3 EWR     2013     1     1     3  39.0  28.0  64.4      240      11.5         NA      0
##  4 EWR     2013     1     1     4  39.9  28.0  62.2      250      12.7         NA      0
##  5 EWR     2013     1     1     5  39.0  28.0  64.4      260      12.7         NA      0
##  6 EWR     2013     1     1     6  37.9  28.0  67.2      240      11.5         NA      0
##  7 EWR     2013     1     1     7  39.0  28.0  64.4      240      15.0         NA      0
##  8 EWR     2013     1     1     8  39.9  28.0  62.2      250      10.4         NA      0
##  9 EWR     2013     1     1     9  39.9  28.0  62.2      260      15.0         NA      0
## 10 EWR     2013     1     1    10  41    28.0  59.6      260      13.8         NA      0
## # … with 26,105 more rows, and 3 more variables: pressure <dbl>, visib <dbl>,
## #   time_hour <dttm>
```
…
.right-plot[
<img src="images/join-images/full-join.gif" width="100%" />
]

---
class: bg-main1

# Example: What if you want to combine the full airline name to the flights data?

```r
flights
```

```
## # A tibble: 336,776 x 19
##     year month   day dep_time sched_dep_time dep_delay arr_time sched_arr_time arr_delay
##    <int> <int> <int>    <int>          <int>     <dbl>    <int>          <int>     <dbl>
##  1  2013     1     1      517            515         2      830            819        11
##  2  2013     1     1      533            529         4      850            830        20
##  3  2013     1     1      542            540         2      923            850        33
##  4  2013     1     1      544            545        -1     1004           1022       -18
##  5  2013     1     1      554            600        -6      812            837       -25
##  6  2013     1     1      554            558        -4      740            728        12
##  7  2013     1     1      555            600        -5      913            854        19
##  8  2013     1     1      557            600        -3      709            723       -14
##  9  2013     1     1      557            600        -3      838            846        -8
## 10  2013     1     1      558            600        -2      753            745         8
## # … with 336,766 more rows, and 10 more variables: carrier <chr>, flight <int>,
## #   tailnum <chr>, origin <chr>, dest <chr>, air_time <dbl>, distance <dbl>, hour <dbl>,
## #   minute <dbl>, time_hour <dttm>
```
…
