ETC1010: Data Modelling and Computing
…
---

```r
library(readxl)
library(sawfish) # devtools::install_github("AnthonyEbert/sawfish")
url<-"http://data.gov.au/dataset/rental-bond-and-rental-data-tasmania-2016-to-2017"
fls <- find_files(url, "xlsx")
f1 <- tempfile()
download.file(fls[1], f1, mode="wb")
t1 <- read_xlsx(path=f1, sheet=1)
t1
# A tibble: 1,368 x 11
     `Street Name`      Suburb State Postcode `Bond Amount` `Weekly Rent`
             <chr>       <chr> <chr>    <dbl>         <dbl>         <dbl>
 1 BANGALEE STREET  LAUDERDALE   TAS     7021          1440         360.0
 2     WILMOT ROAD   HUONVILLE   TAS     7109          1180         295.0
 3     FOREST ROAD WEST HOBART   TAS     7000           350          87.5
 4     FOREST ROAD WEST HOBART   TAS     7000           350          87.5
 5     CENTRAL AVE      MOONAH   TAS     7009           800         200.0
 6      CHARLES ST      MOONAH   TAS     7009          1200         300.0
 7   SPINIFEX ROAD RISDON VALE   TAS     7016          1080         270.0
 8   GARDENIA ROAD RISDON VALE   TAS     7016           780         195.0
 9  BRITTEN STREET NEW NORFOLK   TAS     7140          1140         285.0
10      BOXHILL RD   CLAREMONT   TAS     7011           600         150.0
# ... with 1,358 more rows, and 5 more variables: `Bond Lodgement date
#   (DD/MM/YYYY)` <dttm>, `Bond Activation date (DD/MM/YYYY)` <dttm>, `No
#   of Bedrooms` <dbl>, `Dwelling/Premises Type` <chr>, `Length of Tenancy
#   (In Months)` <dbl>
```
…
