ETC1010: Data Modelling and Computing
…
```r
melbtemp <- melbtemp[,c(1,2,3,4,seq(5,128,4))]
colnames(melbtemp) <- c("id", "year", "month", "var", paste0("V",1:31))
melbtemp <- melbtemp %>% 
  gather(day, value, V1:V31) %>%
  mutate(day = sub("V", "", day)) %>%
  mutate(value=ifelse(value==-9999, NA, value)) %>%
  filter(var %in% c("PRCP", "TMAX", "TMIN")) %>%
  spread(var, value) %>%
  mutate(PRCP=PRCP/10, TMAX=TMAX/10, TMIN=TMIN/10) %>%
  as_tibble()
melbtemp
# A tibble: 16,399 x 7
            id  year month   day  PRCP  TMAX  TMIN
        <fctr> <int> <int> <chr> <dbl> <dbl> <dbl>
 1 ASN00086282  1970     7     1   0.3  14.1   8.0
 2 ASN00086282  1970     7    10   2.3  10.8   4.2
 3 ASN00086282  1970     7    11   0.3  11.9   4.8
 4 ASN00086282  1970     7    12   0.0  11.2   5.6
 5 ASN00086282  1970     7    13   0.5  12.6   5.1
 6 ASN00086282  1970     7    14   0.0  11.2   3.6
 7 ASN00086282  1970     7    15   0.0  11.5   4.4
 8 ASN00086282  1970     7    16   0.0  13.3   3.9
 9 ASN00086282  1970     7    17   0.0  13.4   4.0
10 ASN00086282  1970     7    18   0.0  12.6   5.8
# ... with 16,389 more rows
```
…
---
# Arrange

Orders a data frame or tibble by the values in one column

```r
library(lubridate)
melbtemp %>% 
  mutate(date=ymd(paste(year, month, day, sep="-"))) %>%
  arrange(date)
# A tibble: 16,399 x 8
            id  year month   day  PRCP  TMAX  TMIN       date
        <fctr> <int> <int> <chr> <dbl> <dbl> <dbl>     <date>
 1 ASN00086282  1970     7     1   0.3  14.1   8.0 1970-07-01
 2 ASN00086282  1970     7     2   3.0  12.4   6.3 1970-07-02
 3 ASN00086282  1970     7     3   0.0  11.3   3.6 1970-07-03
 4 ASN00086282  1970     7     4   0.0  12.3   5.7 1970-07-04
 5 ASN00086282  1970     7     5   3.6  14.8   6.9 1970-07-05
 6 ASN00086282  1970     7     6   0.3  14.9   4.7 1970-07-06
 7 ASN00086282  1970     7     7   0.0  13.9   8.4 1970-07-07
 8 ASN00086282  1970     7     8   0.0  15.3   7.8 1970-07-08
 9 ASN00086282  1970     7     9   1.0  12.3   4.9 1970-07-09
10 ASN00086282  1970     7    10   2.3  10.8   4.2 1970-07-10
# ... with 16,389 more rows
```

---
# Select

Choose some of the __variables__.

```r
airport <- read_csv("data/airports.csv")
airport
# A tibble: 13,094 x 29
   AIRPORT_SEQ_ID AIRPORT_ID AIRPORT     DISPLAY_AIRPORT_NAME
            <int>      <int>   <chr>                    <chr>
 1        1000101      10001     01A     Afognak Lake Airport
 2        1000301      10003     03A  Bear Creek Mining Strip
 3        1000401      10004     04A          Lik Mining Camp
 4        1000501      10005     05A     Little Squaw Airport
 5        1000601      10006     06A             Kizhuyak Bay
 6        1000701      10007     07A    Klawock Seaplane Base
 7        1000801      10008     08A Elizabeth Island Airport
 8        1000901      10009     09A          Augustin Island
 9        1001001      10010     1B1          Columbia County
10        1001002      10010     1B1          Columbia County
# ... with 13,084 more rows, and 25 more variables:
#   DISPLAY_AIRPORT_CITY_NAME_FULL <chr>, AIRPORT_WAC <int>,
#   AIRPORT_COUNTRY_NAME <chr>, AIRPORT_COUNTRY_CODE_ISO <chr>,
#   AIRPORT_STATE_NAME <chr>, AIRPORT_STATE_CODE <chr>,
#   AIRPORT_STATE_FIPS <chr>, CITY_MARKET_ID <int>,
#   DISPLAY_CITY_MARKET_NAME_FULL <chr>, CITY_MARKET_WAC <int>,
#   LAT_DEGREES <int>, LAT_HEMISPHERE <chr>, LAT_MINUTES <int>,
#   LAT_SECONDS <int>, LATITUDE <dbl>, LON_DEGREES <int>,
#   LON_HEMISPHERE <chr>, LON_MINUTES <int>, LON_SECONDS <int>,
#   LONGITUDE <dbl>, AIRPORT_START_DATE <date>, AIRPORT_THRU_DATE <date>,
#   AIRPORT_IS_CLOSED <int>, AIRPORT_IS_LATEST <int>, X29 <chr>
```

---

```r
airport %>%
  select(AIRPORT, LATITUDE, LONGITUDE, AIRPORT_IS_LATEST, DISPLAY_AIRPORT_NAME)
# A tibble: 13,094 x 5
   AIRPORT LATITUDE  LONGITUDE AIRPORT_IS_LATEST     DISPLAY_AIRPORT_NAME
     <chr>    <dbl>      <dbl>             <int>                    <chr>
 1     01A 58.10944 -152.90667                 1     Afognak Lake Airport
 2     03A 65.54806 -161.07167                 1  Bear Creek Mining Strip
 3     04A 68.08333 -163.16667                 1          Lik Mining Camp
 4     05A 67.57000 -148.18389                 1     Little Squaw Airport
 5     06A 57.74528 -152.88278                 1             Kizhuyak Bay
 6     07A 55.55472 -133.10167                 1    Klawock Seaplane Base
 7     08A 59.15694 -151.82917                 1 Elizabeth Island Airport
 8     09A 59.36278 -153.43056                 1          Augustin Island
 9     1B1 42.28889  -73.71028                 0          Columbia County
10     1B1 42.29139  -73.71028                 1          Columbia County
# ... with 13,084 more rows
```
…
```
tweets %>%
  count(source, hour = hour(with_tz(created, "EST")))
```

to calculate the number of tweets from the different devices, android or iphone, each hour. 

---
# Putting it together for the french fries

10 week sensory experiment, 12 individuals assessed taste of french fries on several scales (how potato-y, buttery, grassy, rancid, paint-y do they taste?), fried in one of 3 different oils, replicated twice. First few rows:

```
# A tibble: 696 x 9
     time treatment subject   rep potato buttery grassy rancid painty
 * <fctr>    <fctr>  <fctr> <dbl>  <dbl>   <dbl>  <dbl>  <dbl>  <dbl>
 1      1         1       3     1    2.9     0.0    0.0    0.0    5.5
 2      1         1       3     2   14.0     0.0    0.0    1.1    0.0
 3      1         1      10     1   11.0     6.4    0.0    0.0    0.0
 4      1         1      10     2    9.9     5.9    2.9    2.2    0.0
 5      1         1      15     1    1.2     0.1    0.0    1.1    5.1
 6      1         1      15     2    8.8     3.0    3.6    1.5    2.3
 7      1         1      16     1    9.0     2.6    0.4    0.1    0.2
 8      1         1      16     2    8.2     4.4    0.3    1.4    4.0
 9      1         1      19     1    7.0     3.2    0.0    4.9    3.2
10      1         1      19     2   13.0     0.0    3.1    4.3   10.3
# ... with 686 more rows
```
…
```r
airport <- airport %>%
  select(AIRPORT, LATITUDE, LONGITUDE, AIRPORT_IS_LATEST, DISPLAY_AIRPORT_NAME) %>%
  filter(AIRPORT_IS_LATEST == 1) %>%
  select(-AIRPORT_IS_LATEST)

N4YRAA_latlon <- left_join(plane_N4YRAA, airport,
                           by = c("ORIGIN"="AIRPORT")) %>%
  rename("ORIGIN_LATITUDE"="LATITUDE",
         "ORIGIN_LONGITUDE"="LONGITUDE")
N4YRAA_latlon %>% 
  select(ORIGIN, ORIGIN_LATITUDE, ORIGIN_LONGITUDE, 
         DISPLAY_AIRPORT_NAME)
# A tibble: 146 x 4
   ORIGIN ORIGIN_LATITUDE ORIGIN_LONGITUDE
    <chr>           <dbl>            <dbl>
 1    CVG        39.04889        -84.66778
 2    DFW        32.89722        -97.03778
 3    DFW        32.89722        -97.03778
 4    STL        38.74861        -90.37000
 5    IND        39.71722        -86.29472
 6    CHS        32.89861        -80.04056
 7    DFW        32.89722        -97.03778
 8    DFW        32.89722        -97.03778
 9    MKE        42.94694        -87.89694
10    MKE        42.94694        -87.89694
# ... with 136 more rows, and 1 more variables: DISPLAY_AIRPORT_NAME <chr>
```
…
