ETC1010: Data Modelling and Computing
…
---
# Gather Column Names into Long Form

```r
gather(genes, variable, expr, -id) 
# A tibble: 33 x 3
       id variable      expr
    <chr>    <chr>     <dbl>
 1 Gene 1  WI-6.R1 2.1824242
 2 Gene 2  WI-6.R1 1.4642236
 3 Gene 3  WI-6.R1 2.0317925
 4 Gene 1  WI-6.R2 2.2042219
 5 Gene 2  WI-6.R2 0.5854472
 6 Gene 3  WI-6.R2 0.8701078
 7 Gene 1  WI-6.R4 4.1956364
 8 Gene 2  WI-6.R4 1.8592378
 9 Gene 3  WI-6.R4 3.2819835
10 Gene 1  WM-6.R1 2.6273345
# ... with 23 more rows
```

---
# Separate Columns

```r
genes %>%
  gather(variable, expr, -id) %>%
  separate(variable, c("trt", "leftover"), "-") 
# A tibble: 33 x 4
       id   trt leftover      expr
 *  <chr> <chr>    <chr>     <dbl>
 1 Gene 1    WI     6.R1 2.1824242
 2 Gene 2    WI     6.R1 1.4642236
 3 Gene 3    WI     6.R1 2.0317925
 4 Gene 1    WI     6.R2 2.2042219
 5 Gene 2    WI     6.R2 0.5854472
 6 Gene 3    WI     6.R2 0.8701078
 7 Gene 1    WI     6.R4 4.1956364
 8 Gene 2    WI     6.R4 1.8592378
 9 Gene 3    WI     6.R4 3.2819835
10 Gene 1    WM     6.R1 2.6273345
# ... with 23 more rows
```

---

```r
genes %>%
  gather(variable, expr, -id) %>%
  separate(variable, c("trt", "leftover"), "-") %>%
  separate(leftover, c("time", "rep"), "\\.") 
# A tibble: 33 x 5
       id   trt  time   rep      expr
 *  <chr> <chr> <chr> <chr>     <dbl>
 1 Gene 1    WI     6    R1 2.1824242
 2 Gene 2    WI     6    R1 1.4642236
 3 Gene 3    WI     6    R1 2.0317925
 4 Gene 1    WI     6    R2 2.2042219
 5 Gene 2    WI     6    R2 0.5854472
 6 Gene 3    WI     6    R2 0.8701078
 7 Gene 1    WI     6    R4 4.1956364
 8 Gene 2    WI     6    R4 1.8592378
 9 Gene 3    WI     6    R4 3.2819835
10 Gene 1    WM     6    R1 2.6273345
# ... with 23 more rows
```
…
