ETC1010: Data Modelling and Computing
…
---
# Airline data

```
# A tibble: 18,166 x 44
    YEAR MONTH DAY_OF_MONTH DAY_OF_WEEK    FL_DATE UNIQUE_CARRIER
   <int> <int>        <int>       <int>     <date>          <chr>
 1  2017     5            1           1 2017-05-01             AA
 2  2017     5            2           2 2017-05-02             AA
 3  2017     5            3           3 2017-05-03             AA
 4  2017     5            4           4 2017-05-04             AA
 5  2017     5            5           5 2017-05-05             AA
 6  2017     5            6           6 2017-05-06             AA
 7  2017     5            7           7 2017-05-07             AA
 8  2017     5            8           1 2017-05-08             AA
 9  2017     5            9           2 2017-05-09             AA
10  2017     5           10           3 2017-05-10             AA
# ... with 18,156 more rows, and 38 more variables: AIRLINE_ID <int>,
#   CARRIER <chr>, TAIL_NUM <chr>, FL_NUM <int>, ORIGIN <chr>,
#   ORIGIN_CITY_NAME <chr>, ORIGIN_STATE_ABR <chr>, DEST <chr>,
#   DEST_CITY_NAME <chr>, DEST_STATE_ABR <chr>, CRS_DEP_TIME <chr>,
#   DEP_TIME <chr>, DEP_DELAY <dbl>, DEP_DELAY_NEW <dbl>, DEP_DEL15 <dbl>,
#   DEP_DELAY_GROUP <int>, TAXI_OUT <dbl>, WHEELS_OFF <chr>,
#   WHEELS_ON <chr>, TAXI_IN <dbl>, CRS_ARR_TIME <chr>, ARR_TIME <chr>,
#   ARR_DELAY <dbl>, ARR_DELAY_NEW <dbl>, ARR_DEL15 <dbl>,
#   CANCELLED <dbl>, CANCELLATION_CODE <chr>, DIVERTED <dbl>,
…
