ETC 1010 Lab 2 SOLUTION
…
Is a whale shark, a whale? No

What are the observations is this data? Each encounter with a whale shark.

What info potentially is replicated on multiple lines? That is, the records are an example of repeated measurements, sometimes called longitudinal or panel data. Whale sharks are seen repeatedly, and the same observers report multiple whale sharks.

Compute the number of records for each whale shark, where their identity is known, Marked Individual. What individual has the most sightings? How many unmarked individuals are recorded in the database? See code below. A-102 is sighted most, but most (4881) are unmarked individuals.

Lets make a map of the encounters. Code is below. What part of the code below draws the map? What part adds points for the encounters? geom_polygon, geom_point

Change the code colour males and females differently. Do males and females roam the same locations?

whalesharks %>% count(`Marked Individual`, sort=TRUE)
# A tibble: 4,608 x 2
   `Marked Individual`     n
                 <chr> <int>
 1                <NA>  4881
 2               A-102    76
 3               P-094    69
 4               A-001    66
 5               A-524    65
 6               P-073    65
 7               A-534    61
 8               A-098    60
 9               A-425    58
10               A-268    57
# ... with 4,598 more rows
…
