ETC1010: Data Modelling and Computing
…
---
class: bg-main1

# PISA data

```r
pisa_au <- read_csv("data/pisa_au.csv")
pisa_au
```

```
## # A tibble: 14,530 x 44
##    state schtype yr    birthmonth birthyr gender  desk  room computer internet solarpanels
##    <chr> <chr>   <chr>      <dbl>   <dbl> <chr>  <dbl> <dbl>    <dbl>    <dbl> <chr>      
##  1 QLD   Gov     Y10           10    1999 female     1     2        1        1 0036001    
##  2 QLD   Gov     Y10            2    2000 female     2     1        1        1 0036002    
##  3 QLD   Gov     Y10            3    2000 female     1     1        1        1 0036002    
##  4 QLD   Gov     Y10            7    1999 female     1     1        1        1 0036001    
##  5 QLD   Gov     Y10            8    1999 male       1     1        1        1 0036001    
##  6 QLD   Gov     Y10            3    2000 male       1     1        1        1 0036001    
##  7 QLD   Gov     Y10            3    2000 male       1     1        1        1 0036001    
##  8 QLD   Gov     Y10            1    2000 male       1     1        2        1 0036001    
##  9 QLD   Gov     Y10            6    1999 female     1     1        1        1 0036001    
## 10 QLD   Gov     Y10            9    1999 female     1     1        2        1 0036002    
## # … with 14,520 more rows, and 33 more variables: tvs <dbl>, cars <dbl>,
## #   music_instr <dbl>, books <dbl>, birthcnt <dbl>, mother_birthcnt <dbl>,
## #   father_birthcnt <dbl>, test_anxiety <dbl>, ambitious <dbl>, prefer_team <dbl>,
## #   make_friends_easy <dbl>, tardy <dbl>, science_fun <dbl>, breakfast <dbl>,
## #   work_pay <dbl>, sport <dbl>, internet_use <dbl>, install_software <dbl>,
## #   outhours_study <dbl>, math_time <dbl>, read_time <dbl>, science_time <dbl>,
## #   belong <dbl>, anxtest <dbl>, motivat <dbl>, language <dbl>, home_edres <dbl>,
## #   home_poss <dbl>, wealth <dbl>, stuweight <dbl>, math <dbl>, science <dbl>, read <dbl>
```

---
class: bg-main1

# PISA data

```r
pisa_au %>%
  select(science_time,
         science,
         science_fun)
```

```
## # A tibble: 14,530 x 3
##    science_time science science_fun
##           <dbl>   <dbl>       <dbl>
##  1          210    590.          NA
##  2          165    557.           3
##  3          210    569.           2
##  4          210    529.           4
##  5          210    504.           3
##  6          210    473.          NA
##  7          135    496.          NA
##  8          280    336.           1
##  9          210    565.           2
## 10            0    605.           2
## # … with 14,520 more rows
```
…
---
class: bg-main1

# Different sources of sentiment

```r
get_sentiments("afinn")
```

```
## # A tibble: 2,477 x 2
##    word       value
##    <chr>      <dbl>
##  1 abandon       -2
##  2 abandoned     -2
##  3 abandons      -2
##  4 abducted      -2
##  5 abduction     -2
##  6 abductions    -2
##  7 abhor         -3
##  8 abhorred      -3
##  9 abhorrent     -3
## 10 abhors        -3
## # … with 2,467 more rows
```
…
---
class: bg-main1

# Exploring sentiment in Jane Austen

```r
tidy_books
```

```
## # A tibble: 725,055 x 4
##    book                linenumber chapter word       
##    <fct>                    <int>   <int> <chr>      
##  1 Sense & Sensibility          1       0 sense      
##  2 Sense & Sensibility          1       0 and        
##  3 Sense & Sensibility          1       0 sensibility
##  4 Sense & Sensibility          3       0 by         
##  5 Sense & Sensibility          3       0 jane       
##  6 Sense & Sensibility          3       0 austen     
##  7 Sense & Sensibility          5       0 1811       
##  8 Sense & Sensibility         10       1 chapter    
##  9 Sense & Sensibility         10       1 1          
## 10 Sense & Sensibility         13       1 the        
## # … with 725,045 more rows
```
…
# Count joyful words in "Emma"

```r
nrc_joy <- get_sentiments("nrc") %>% 
  filter(sentiment == "joy")

tidy_books %>%
  filter(book == "Emma") %>%
  inner_join(nrc_joy) %>%
  count(word, sort = TRUE)
```

```
## # A tibble: 303 x 2
##    word        n
##    <chr>   <int>
##  1 good      359
##  2 young     192
##  3 friend    166
##  4 hope      143
##  5 happy     125
##  6 love      117
##  7 deal       92
##  8 found      92
##  9 present    89
## 10 kind       82
## # … with 293 more rows
```
…
---
class: bg-main1

# Comparing lexicons

```r
emma_nrc
```

```
## # A tibble: 13,944 x 5
##    book  linenumber chapter word       sentiment
##    <fct>      <int>   <int> <chr>      <chr>    
##  1 Emma          15       1 clever     positive 
##  2 Emma          16       1 happy      positive 
##  3 Emma          16       1 blessings  positive 
##  4 Emma          17       1 existence  positive 
##  5 Emma          18       1 distress   negative 
##  6 Emma          21       1 marriage   positive 
##  7 Emma          22       1 mistress   negative 
##  8 Emma          22       1 mother     negative 
##  9 Emma          22       1 mother     positive 
## 10 Emma          23       1 indistinct negative 
## # … with 13,934 more rows
```

---
class: bg-main1

# Comparing lexicons

```r
emma_afinn
```

```
## # A tibble: 10,901 x 5
##    book  linenumber chapter word         value
##    <fct>      <int>   <int> <chr>        <dbl>
##  1 Emma          15       1 clever           2
##  2 Emma          15       1 rich             2
##  3 Emma          15       1 comfortable      2
##  4 Emma          16       1 happy            3
##  5 Emma          16       1 best             3
##  6 Emma          18       1 distress        -2
##  7 Emma          20       1 affectionate     3
##  8 Emma          22       1 died            -3
##  9 Emma          24       1 excellent        3
## 10 Emma          25       1 fallen          -2
## # … with 10,891 more rows
```
…
---
class: bg-main1

# The Simpsons

```r
scripts <- read_csv("data/simpsons_script_lines.csv")
chs <- read_csv("data/simpsons_characters.csv")
sc <- left_join(scripts, chs, by = c("character_id" = "id"))

sc
```

```
## # A tibble: 157,462 x 16
##       id episode_id number raw_text timestamp_in_ms speaking_line character_id location_id
##    <dbl>      <dbl>  <dbl> <chr>              <dbl> <lgl>                <dbl>       <dbl>
##  1  9549         32    209 Miss Ho…          848000 TRUE                   464           3
##  2  9550         32    210 Lisa Si…          856000 TRUE                     9           3
##  3  9551         32    211 Miss Ho…          856000 TRUE                   464           3
##  4  9552         32    212 Lisa Si…          864000 TRUE                     9           3
##  5  9553         32    213 Edna Kr…          864000 TRUE                    40           3
##  6  9554         32    214 Martin …          877000 TRUE                    38           3
##  7  9555         32    215 Edna Kr…          881000 TRUE                    40           3
##  8  9556         32    216 Bart Si…          882000 TRUE                     8           3
##  9  9557         32    217 (Apartm…          889000 FALSE                   NA         374
## 10  9558         32    218 Lisa Si…          889000 TRUE                     9         374
## # … with 157,452 more rows, and 8 more variables: raw_character_text <chr>,
## #   raw_location_text <chr>, spoken_words <chr>, normalized_text <chr>, word_count <chr>,
## #   name <chr>, normalized_name <chr>, gender <chr>
```

---
class: bg-main1

# count the number of times a character speaks

```r
sc %>% count(name, sort = TRUE)
```

```
## # A tibble: 6,143 x 2
##    name                    n
##    <chr>               <int>
##  1 Homer Simpson       29945
##  2 <NA>                19661
##  3 Marge Simpson       14192
##  4 Bart Simpson        13894
##  5 Lisa Simpson        11573
##  6 C. Montgomery Burns  3196
##  7 Moe Szyslak          2853
##  8 Seymour Skinner      2437
##  9 Ned Flanders         2139
## 10 Grampa Simpson       1952
## # … with 6,133 more rows
```

---
class: bg-main1

# missing name?

```r
sc %>% filter(is.na(name))
```

```
## # A tibble: 19,661 x 16
##       id episode_id number raw_text timestamp_in_ms speaking_line character_id location_id
##    <dbl>      <dbl>  <dbl> <chr>              <dbl> <lgl>                <dbl>       <dbl>
##  1  9557         32    217 (Apartm…          889000 FALSE                   NA         374
##  2  9565         32    225 (Spring…          918000 FALSE                   NA           3
##  3 75766        263    106 (Moe's …          497000 FALSE                   NA          15
##  4  9583         32    243 (Train …          960000 FALSE                   NA         375
##  5  9604         32    264 (Simpso…         1070000 FALSE                   NA           5
##  6  9655         33      0 (Simpso…           84000 FALSE                   NA           5
##  7  9685         33     30 (Simpso…          177000 FALSE                   NA           5
##  8  9686         33     31 (Simpso…          177000 FALSE                   NA           5
##  9  9727         33     72 (Simpso…          349000 FALSE                   NA         151
## 10  9729         33     74 (Simpso…          355000 FALSE                   NA           5
## # … with 19,651 more rows, and 8 more variables: raw_character_text <chr>,
## #   raw_location_text <chr>, spoken_words <chr>, normalized_text <chr>, word_count <chr>,
## #   name <chr>, normalized_name <chr>, gender <chr>
```

---
class: bg-main1

# Simpsons Pre-process the text

```r
sc %>%
  unnest_tokens(output = word, 
                input = spoken_words)
```

```
## # A tibble: 1,355,370 x 16
##       id episode_id number raw_text timestamp_in_ms speaking_line character_id location_id
##    <dbl>      <dbl>  <dbl> <chr>              <dbl> <lgl>                <dbl>       <dbl>
##  1  9549         32    209 Miss Ho…          848000 TRUE                   464           3
##  2  9549         32    209 Miss Ho…          848000 TRUE                   464           3
##  3  9549         32    209 Miss Ho…          848000 TRUE                   464           3
##  4  9549         32    209 Miss Ho…          848000 TRUE                   464           3
##  5  9549         32    209 Miss Ho…          848000 TRUE                   464           3
##  6  9549         32    209 Miss Ho…          848000 TRUE                   464           3
##  7  9549         32    209 Miss Ho…          848000 TRUE                   464           3
##  8  9549         32    209 Miss Ho…          848000 TRUE                   464           3
##  9  9549         32    209 Miss Ho…          848000 TRUE                   464           3
## 10  9549         32    209 Miss Ho…          848000 TRUE                   464           3
## # … with 1,355,360 more rows, and 8 more variables: raw_character_text <chr>,
## #   raw_location_text <chr>, normalized_text <chr>, word_count <chr>, name <chr>,
## #   normalized_name <chr>, gender <chr>, word <chr>
```

---
class: bg-main1

# Simpsons Pre-process the text

```r
sc %>%
  unnest_tokens(output = word, 
                input = spoken_words) %>%
  anti_join(stop_words)
```

```
## # A tibble: 511,869 x 16
##       id episode_id number raw_text timestamp_in_ms speaking_line character_id location_id
##    <dbl>      <dbl>  <dbl> <chr>              <dbl> <lgl>                <dbl>       <dbl>
##  1  9549         32    209 Miss Ho…          848000 TRUE                   464           3
##  2  9549         32    209 Miss Ho…          848000 TRUE                   464           3
##  3  9549         32    209 Miss Ho…          848000 TRUE                   464           3
##  4  9549         32    209 Miss Ho…          848000 TRUE                   464           3
##  5  9550         32    210 Lisa Si…          856000 TRUE                     9           3
##  6  9551         32    211 Miss Ho…          856000 TRUE                   464           3
##  7  9551         32    211 Miss Ho…          856000 TRUE                   464           3
##  8  9551         32    211 Miss Ho…          856000 TRUE                   464           3
##  9  9551         32    211 Miss Ho…          856000 TRUE                   464           3
## 10  9551         32    211 Miss Ho…          856000 TRUE                   464           3
## # … with 511,859 more rows, and 8 more variables: raw_character_text <chr>,
## #   raw_location_text <chr>, normalized_text <chr>, word_count <chr>, name <chr>,
## #   normalized_name <chr>, gender <chr>, word <chr>
```
…
# Simpsons Pre-process the text

```r
sc %>%
  unnest_tokens(output = word, 
                input = spoken_words) %>%
  anti_join(stop_words) %>%
  count(word, sort = TRUE) %>%
  filter(!is.na(word))
```

```
## # A tibble: 41,891 x 2
##    word        n
##    <chr>   <int>
##  1 hey      4366
##  2 homer    4328
##  3 bart     3434
##  4 uh       3090
##  5 yeah     2997
##  6 simpson  2846
##  7 marge    2786
##  8 gonna    2639
##  9 dad      2521
## 10 time     2508
## # … with 41,881 more rows
```
…
.pull-right[

```r
sc_word
```

```
## # A tibble: 220,838 x 3
##    name            word            n
##    <chr>           <chr>       <int>
##  1 '30s Reporter   burns           1
##  2 '30s Reporter   kinda           1
##  3 '30s Reporter   sensational     1
##  4 1-Year-Old Bart beer            1
##  5 1-Year-Old Bart daddy           5
##  6 1-Year-Old Bart fat             1
##  7 1-Year-Old Bart moustache       1
##  8 1-Year-Old Bart nice            1
##  9 1-Year-Old Bart smell           1
## 10 1-Year-Old Bart yell            1
## # … with 220,828 more rows
```
]

---
class: bg-main1

```r
sc_s <- sc_word %>% 
  inner_join(get_sentiments("afinn"), by = "word")

sc_s
```

```
## # A tibble: 26,688 x 4
##    name              word       n value
##    <chr>             <chr>  <int> <dbl>
##  1 1-Year-Old Bart   nice       1     3
##  2 10-Year-Old Homer chance     1     2
##  3 10-Year-Old Homer cool       1     1
##  4 10-Year-Old Homer die        1    -3
##  5 10-Year-Old Homer died       1    -3
##  6 10-Year-Old Homer dreams     1     1
##  7 10-Year-Old Homer happy      1     3
##  8 10-Year-Old Homer heaven     1     2
##  9 10-Year-Old Homer hell       1    -4
## 10 10-Year-Old Homer kiss       1     2
## # … with 26,678 more rows
```

---
class: bg-main1

# Examine Simpsons characters

```r
sc_s %>% 
  group_by(name) %>% 
  summarise(m = mean(value)) %>% 
  arrange(desc(m))
```

```
## # A tibble: 3,409 x 2
##    name                    m
##    <chr>               <dbl>
##  1 2nd Sportscaster        4
##  2 4-h Judge               4
##  3 7-Year-Old Brockman     4
##  4 ALEPPO                  4
##  5 All Kids                4
##  6 Applicants              4
##  7 Australian              4
##  8 Bill James              4
##  9 Canadian Player         4
## 10 Carl Kasell             4
## # … with 3,399 more rows
```
…
---
class: bg-main1

.huge[
Here is the data collected in the previous year's AFL finals.
]

```r
afl <- read_rds("data/afl_twitter_past.rds")
afl
```

```
## # A tibble: 9,900 x 88
##    user_id status_id created_at          screen_name text  source display_text_wi…
##  * <chr>   <chr>     <dttm>              <chr>       <chr> <chr>             <dbl>
##  1 124305… 10402046… 2018-09-13 11:45:00 JimWilsonTV @GWS… Twitt…              129
##  2 124305… 10385921… 2018-09-09 00:57:25 JimWilsonTV No t… Twitt…              113
##  3 124305… 10380010… 2018-09-07 09:48:37 JimWilsonTV Than… Twitt…              162
##  4 124305… 10382372… 2018-09-08 01:27:11 JimWilsonTV Can’… Twitt…              139
##  5 124305… 10391266… 2018-09-10 12:21:15 JimWilsonTV On y… Twitt…              163
##  6 124305… 10383958… 2018-09-08 11:57:28 JimWilsonTV Grea… Twitt…              101
##  7 124305… 10374607… 2018-09-05 22:01:31 JimWilsonTV @NTh… Twitt…               69
##  8 124305… 10371973… 2018-09-05 04:34:47 JimWilsonTV 16 y… Twitt…              176
##  9 330082… 10402039… 2018-09-13 11:41:57 AlexWard64  I've… Twitt…              137
## 10 303429… 10402010… 2018-09-13 11:30:30 HAWKSHEROES I'm … Twitt…              119
## # … with 9,890 more rows, and 81 more variables: reply_to_status_id <chr>,
## #   reply_to_user_id <chr>, reply_to_screen_name <chr>, is_quote <lgl>, is_retweet <lgl>,
## #   favorite_count <int>, retweet_count <int>, hashtags <list>, symbols <list>,
## #   urls_url <list>, urls_t.co <list>, urls_expanded_url <list>, media_url <list>,
## #   media_t.co <list>, media_expanded_url <list>, media_type <list>,
## #   ext_media_url <list>, ext_media_t.co <list>, ext_media_expanded_url <list>,
## #   ext_media_type <chr>, mentions_user_id <list>, mentions_screen_name <list>,
## #   lang <chr>, quoted_status_id <chr>, quoted_text <chr>, quoted_created_at <dttm>,
## #   quoted_source <chr>, quoted_favorite_count <int>, quoted_retweet_count <int>,
…
