Kiva Crowdfunding
…
---

*What's the most popular term for loans and repayment type, and dependent on the term of the loans, how does the repayment length vary?*

```
# A tibble: 148 x 2
   term_in_months      n
            <dbl>  <int>
 1            14. 166750
 2             8. 143042
 3            11.  40694
 4             7.  32847
 5            13.  30501
 6            20.  28483
 7             6.  26039
 8            12.  25700
 9            15.  25255
10            26.  23431
# ... with 138 more rows
…
<img src="Final_Project_files/figure-html/unnamed-chunk-11-1.png" style="display: block; margin: auto;" /><img src="Final_Project_files/figure-html/unnamed-chunk-11-2.png" style="display: block; margin: auto;" />

---

-	Likelihood of getting your crowdfund raised dependent on sector
-	agriculture, retail, and clothing are the most frequent loan sectors
-	Agriculture has limited repayment abilities

---

*Does the raised amount depend on the currency it's given in/the country asking for it?*

```
# A tibble: 66 x 2
   currency      n
   <chr>     <int>
 1 PHP      156144
 2 USD      105181
 3 KES       70897
 4 PKR       26841
 5 KHR       25468
 6 COP       21727
 7 PEN       21370
 8 UGX       19920
 9 TJS       17414
10 XOF       17051
# ... with 56 more rows
```
…
<img src="Final_Project_files/figure-html/unnamed-chunk-13-1.png" style="display: block; margin: auto;" />

---

-	No indication of growth in Kiva
-	No indication of more donors to the service
-	Contradicts the notion that as a platform grows, the raised amount would increase

---

*Each individual variable plotted against the response variable.*

```
# A tibble: 86 x 2
   country                          count
   <chr>                            <int>
 1 Guam                                 1
 2 Mauritania                           1
 3 Afghanistan                          2
 4 Bhutan                               2
 5 Virgin Islands                       2
 6 Vanuatu                              4
 7 Namibia                              8
 8 Chile                                9
 9 Saint Vincent and the Grenadines    16
10 Puerto Rico                         68
# ... with 76 more rows
# A tibble: 66 x 2
   currency count
   <chr>    <int>
 1 VUV          4
 2 CLP          8
 3 NAD          8
 4 XCD         16
 5 THB         79
 6 BZD        125
 7 CNY        125
 8 SSP        127
 9 ILS        193
10 SRD        223
# ... with 56 more rows
```
…
