ETC1010: Data Modelling and Computing
…
# plots of rsquared

---
class: bg-main1

# unpacking lm and model objects

```r
pp <- read_csv("data/paris-paintings.csv", na = c("n/a", "", "NA"))
pp
```

```
## # A tibble: 3,393 x 61
##    name  sale  lot   position dealer  year origin_author origin_cat school_pntg
##    <chr> <chr> <chr>    <dbl> <chr>  <dbl> <chr>         <chr>      <chr>      
##  1 L176… L1764 2       0.0328 L       1764 F             O          F          
##  2 L176… L1764 3       0.0492 L       1764 I             O          I          
##  3 L176… L1764 4       0.0656 L       1764 X             O          D/FL       
##  4 L176… L1764 5       0.0820 L       1764 F             O          F          
##  5 L176… L1764 5       0.0820 L       1764 F             O          F          
##  6 L176… L1764 6       0.0984 L       1764 X             O          I          
##  7 L176… L1764 7       0.115  L       1764 F             O          F          
##  8 L176… L1764 7       0.115  L       1764 F             O          F          
##  9 L176… L1764 8       0.131  L       1764 X             O          I          
## 10 L176… L1764 9       0.148  L       1764 D/FL          O          D/FL       
## # … with 3,383 more rows, and 52 more variables: diff_origin <dbl>, logprice <dbl>,
## #   price <dbl>, count <dbl>, subject <chr>, authorstandard <chr>, artistliving <dbl>,
## #   authorstyle <chr>, author <chr>, winningbidder <chr>, winningbiddertype <chr>,
## #   endbuyer <chr>, Interm <dbl>, type_intermed <chr>, Height_in <dbl>, Width_in <dbl>,
## #   Surface_Rect <dbl>, Diam_in <dbl>, Surface_Rnd <dbl>, Shape <chr>, Surface <dbl>,
## #   material <chr>, mat <chr>, materialCat <chr>, quantity <dbl>, nfigures <dbl>,
## #   engraved <dbl>, original <dbl>, prevcoll <dbl>, othartist <dbl>, paired <dbl>,
## #   figures <dbl>, finished <dbl>, lrgfont <dbl>, relig <dbl>, landsALL <dbl>,
## #   lands_sc <dbl>, lands_elem <dbl>, lands_figs <dbl>, lands_ment <dbl>, arch <dbl>,
…
`augment(<MODEL>, <DATA>)`
]

---
class: bg-main1

# augment

```r
augment(m_ht_wt)
```

```
## # A tibble: 3,135 x 10
##    .rownames Height_in Width_in .fitted .se.fit  .resid     .hat .sigma .cooksd .std.resid
##    <chr>         <dbl>    <dbl>   <dbl>   <dbl>   <dbl>    <dbl>  <dbl>   <dbl>      <dbl>
##  1 1                37     29.5   26.7    0.166 10.3    0.000399   8.30 3.10e-4     1.25  
##  2 2                18     14     14.6    0.165  3.45   0.000396   8.31 3.42e-5     0.415 
##  3 3                13     16     16.1    0.158 -3.11   0.000361   8.31 2.54e-5    -0.375 
##  4 4                14     18     17.7    0.152 -3.68   0.000337   8.31 3.30e-5    -0.443 
##  5 5                14     18     17.7    0.152 -3.68   0.000337   8.31 3.30e-5    -0.443 
##  6 6                 7     10     11.4    0.185 -4.43   0.000498   8.31 7.09e-5    -0.534 
##  7 7                 6     13     13.8    0.170 -7.77   0.000418   8.30 1.83e-4    -0.936 
##  8 8                 6     13     13.8    0.170 -7.77   0.000418   8.30 1.83e-4    -0.936 
##  9 9                15     15     15.3    0.161 -0.333  0.000377   8.31 3.04e-7    -0.0401
## 10 10                9      7      9.09   0.204 -0.0870 0.000601   8.31 3.30e-8    -0.0105
## # … with 3,125 more rows
```
…
# nest country level data (one row = one country)

```r
by_country <- gap %>% 
  select(country, year1950, lifeExp, continent) %>%
  group_by(country, continent) %>% 
  nest()

by_country
```

```
## # A tibble: 142 x 3
##    country     continent data             
##    <fct>       <fct>     <list>           
##  1 Afghanistan Asia      <tibble [12 × 2]>
##  2 Albania     Europe    <tibble [12 × 2]>
##  3 Algeria     Africa    <tibble [12 × 2]>
##  4 Angola      Africa    <tibble [12 × 2]>
##  5 Argentina   Americas  <tibble [12 × 2]>
##  6 Australia   Oceania   <tibble [12 × 2]>
##  7 Austria     Europe    <tibble [12 × 2]>
##  8 Bahrain     Asia      <tibble [12 × 2]>
##  9 Bangladesh  Asia      <tibble [12 × 2]>
## 10 Belgium     Europe    <tibble [12 × 2]>
## # … with 132 more rows
```
…
# Map inside the data?

```r
country_model <- by_country %>% 
  mutate(model = map(data, function(x){
    lm(lifeExp ~ year1950, data = x)
    })
    )

country_model
```

```
## # A tibble: 142 x 4
##    country     continent data              model 
##    <fct>       <fct>     <list>            <list>
##  1 Afghanistan Asia      <tibble [12 × 2]> <lm>  
##  2 Albania     Europe    <tibble [12 × 2]> <lm>  
##  3 Algeria     Africa    <tibble [12 × 2]> <lm>  
##  4 Angola      Africa    <tibble [12 × 2]> <lm>  
##  5 Argentina   Americas  <tibble [12 × 2]> <lm>  
##  6 Australia   Oceania   <tibble [12 × 2]> <lm>  
##  7 Austria     Europe    <tibble [12 × 2]> <lm>  
##  8 Bahrain     Asia      <tibble [12 × 2]> <lm>  
##  9 Bangladesh  Asia      <tibble [12 × 2]> <lm>  
## 10 Belgium     Europe    <tibble [12 × 2]> <lm>  
## # … with 132 more rows
```

---
class: bg-main1

# A case for map (shorthand function)

```r
country_model <- by_country %>% 
  mutate(model = map(data, ~lm(lifeExp ~ year1950, data = .)))

country_model
```

```
## # A tibble: 142 x 4
##    country     continent data              model 
##    <fct>       <fct>     <list>            <list>
##  1 Afghanistan Asia      <tibble [12 × 2]> <lm>  
##  2 Albania     Europe    <tibble [12 × 2]> <lm>  
##  3 Algeria     Africa    <tibble [12 × 2]> <lm>  
##  4 Angola      Africa    <tibble [12 × 2]> <lm>  
##  5 Argentina   Americas  <tibble [12 × 2]> <lm>  
##  6 Australia   Oceania   <tibble [12 × 2]> <lm>  
##  7 Austria     Europe    <tibble [12 × 2]> <lm>  
##  8 Bahrain     Asia      <tibble [12 × 2]> <lm>  
##  9 Bangladesh  Asia      <tibble [12 × 2]> <lm>  
## 10 Belgium     Europe    <tibble [12 × 2]> <lm>  
## # … with 132 more rows
```
…
---
class: bg-main1

# NO NICK, THERE's A BETTER WAY.

```r
country_model %>%
  mutate(tidy = map(model, tidy))
```

```
## # A tibble: 142 x 5
##    country     continent data              model  tidy            
##    <fct>       <fct>     <list>            <list> <list>          
##  1 Afghanistan Asia      <tibble [12 × 2]> <lm>   <tibble [2 × 5]>
##  2 Albania     Europe    <tibble [12 × 2]> <lm>   <tibble [2 × 5]>
##  3 Algeria     Africa    <tibble [12 × 2]> <lm>   <tibble [2 × 5]>
##  4 Angola      Africa    <tibble [12 × 2]> <lm>   <tibble [2 × 5]>
##  5 Argentina   Americas  <tibble [12 × 2]> <lm>   <tibble [2 × 5]>
##  6 Australia   Oceania   <tibble [12 × 2]> <lm>   <tibble [2 × 5]>
##  7 Austria     Europe    <tibble [12 × 2]> <lm>   <tibble [2 × 5]>
##  8 Bahrain     Asia      <tibble [12 × 2]> <lm>   <tibble [2 × 5]>
##  9 Bangladesh  Asia      <tibble [12 × 2]> <lm>   <tibble [2 × 5]>
## 10 Belgium     Europe    <tibble [12 × 2]> <lm>   <tibble [2 × 5]>
## # … with 132 more rows
```

---
class: bg-main1

```r
country_coefs <- country_model %>%
  mutate(tidy = map(model, tidy)) %>%
  unnest(tidy) %>%
  select(country, continent, term, estimate)

country_coefs
```

```
## # A tibble: 284 x 4
##    country     continent term        estimate
##    <fct>       <fct>     <chr>          <dbl>
##  1 Afghanistan Asia      (Intercept)   29.4  
##  2 Afghanistan Asia      year1950       0.275
##  3 Albania     Europe    (Intercept)   58.6  
##  4 Albania     Europe    year1950       0.335
##  5 Algeria     Africa    (Intercept)   42.2  
##  6 Algeria     Africa    year1950       0.569
##  7 Angola      Africa    (Intercept)   31.7  
##  8 Angola      Africa    year1950       0.209
##  9 Argentina   Americas  (Intercept)   62.2  
## 10 Argentina   Americas  year1950       0.232
## # … with 274 more rows
```

---
class: bg-main1

```r
tidy_country_coefs <- country_coefs %>%
  spread(key = term, 
         value = estimate) %>%
  rename(intercept = `(Intercept)`)

tidy_country_coefs
```

```
## # A tibble: 142 x 4
##    country     continent intercept year1950
##    <fct>       <fct>         <dbl>    <dbl>
##  1 Afghanistan Asia           29.4    0.275
##  2 Albania     Europe         58.6    0.335
##  3 Algeria     Africa         42.2    0.569
##  4 Angola      Africa         31.7    0.209
##  5 Argentina   Americas       62.2    0.232
##  6 Australia   Oceania        67.9    0.228
##  7 Austria     Europe         66.0    0.242
##  8 Bahrain     Asia           51.8    0.468
##  9 Bangladesh  Asia           35.1    0.498
## 10 Belgium     Europe         67.5    0.209
## # … with 132 more rows
```
…
---
class: bg-main1

# Plot all the models

```r
country_aug <- country_model %>% 
  mutate(augmented = map(model, augment)) %>%
  unnest(augmented)

country_aug
```

```
## # A tibble: 1,704 x 11
##    country continent lifeExp year1950 .fitted .se.fit  .resid   .hat .sigma .cooksd
##    <fct>   <fct>       <dbl>    <dbl>   <dbl>   <dbl>   <dbl>  <dbl>  <dbl>   <dbl>
##  1 Afghan… Asia         28.8        2    29.9   0.664 -1.11   0.295    1.21 2.43e-1
##  2 Afghan… Asia         30.3        7    31.3   0.580 -0.952  0.225    1.24 1.13e-1
##  3 Afghan… Asia         32.0       12    32.7   0.503 -0.664  0.169    1.27 3.60e-2
##  4 Afghan… Asia         34.0       17    34.0   0.436 -0.0172 0.127    1.29 1.65e-5
##  5 Afghan… Asia         36.1       22    35.4   0.385  0.674  0.0991   1.27 1.85e-2
##  6 Afghan… Asia         38.4       27    36.8   0.357  1.65   0.0851   1.15 9.23e-2
##  7 Afghan… Asia         39.9       32    38.2   0.357  1.69   0.0851   1.15 9.67e-2
##  8 Afghan… Asia         40.8       37    39.5   0.385  1.28   0.0991   1.21 6.67e-2
##  9 Afghan… Asia         41.7       42    40.9   0.436  0.754  0.127    1.26 3.17e-2
## 10 Afghan… Asia         41.8       47    42.3   0.503 -0.534  0.169    1.27 2.33e-2
## # … with 1,694 more rows, and 1 more variable: .std.resid <dbl>
```
…
---
class: bg-main1

# Model diagnostics by country

```r
country_glance <- country_model %>% 
  mutate(glance = map(model, glance)) %>%
  unnest(glance)

country_glance
```

```
## # A tibble: 142 x 15
##    country continent data  model r.squared adj.r.squared sigma statistic  p.value    df
##    <fct>   <fct>     <lis> <lis>     <dbl>         <dbl> <dbl>     <dbl>    <dbl> <int>
##  1 Afghan… Asia      <tib… <lm>      0.948         0.942 1.22      181.  9.84e- 8     2
##  2 Albania Europe    <tib… <lm>      0.911         0.902 1.98      102.  1.46e- 6     2
##  3 Algeria Africa    <tib… <lm>      0.985         0.984 1.32      662.  1.81e-10     2
##  4 Angola  Africa    <tib… <lm>      0.888         0.877 1.41       79.1 4.59e- 6     2
##  5 Argent… Americas  <tib… <lm>      0.996         0.995 0.292    2246.  4.22e-13     2
##  6 Austra… Oceania   <tib… <lm>      0.980         0.978 0.621     481.  8.67e-10     2
##  7 Austria Europe    <tib… <lm>      0.992         0.991 0.407    1261.  7.44e-12     2
##  8 Bahrain Asia      <tib… <lm>      0.967         0.963 1.64      291.  1.02e- 8     2
##  9 Bangla… Asia      <tib… <lm>      0.989         0.988 0.977     930.  3.37e-11     2
## 10 Belgium Europe    <tib… <lm>      0.995         0.994 0.293    1822.  1.20e-12     2
## # … with 132 more rows, and 5 more variables: logLik <dbl>, AIC <dbl>, BIC <dbl>,
## #   deviance <dbl>, df.residual <int>
```
…
