ETC1010: Data Modelling and Computing
…
---
class: bg-main1

# Paris Paintings

```r
pp <- read_csv("data/paris-paintings.csv", na = c("n/a", "", "NA"))
pp
```

```
## # A tibble: 3,393 x 61
##    name  sale  lot   position dealer  year origin_author origin_cat
##    <chr> <chr> <chr>    <dbl> <chr>  <dbl> <chr>         <chr>     
##  1 L176… L1764 2       0.0328 L       1764 F             O         
##  2 L176… L1764 3       0.0492 L       1764 I             O         
##  3 L176… L1764 4       0.0656 L       1764 X             O         
##  4 L176… L1764 5       0.0820 L       1764 F             O         
##  5 L176… L1764 5       0.0820 L       1764 F             O         
##  6 L176… L1764 6       0.0984 L       1764 X             O         
##  7 L176… L1764 7       0.115  L       1764 F             O         
##  8 L176… L1764 7       0.115  L       1764 F             O         
##  9 L176… L1764 8       0.131  L       1764 X             O         
## 10 L176… L1764 9       0.148  L       1764 D/FL          O         
## # … with 3,383 more rows, and 53 more variables: school_pntg <chr>,
## #   diff_origin <dbl>, logprice <dbl>, price <dbl>, count <dbl>,
## #   subject <chr>, authorstandard <chr>, artistliving <dbl>,
## #   authorstyle <chr>, author <chr>, winningbidder <chr>,
## #   winningbiddertype <chr>, endbuyer <chr>, Interm <dbl>,
## #   type_intermed <chr>, Height_in <dbl>, Width_in <dbl>,
## #   Surface_Rect <dbl>, Diam_in <dbl>, Surface_Rnd <dbl>, Shape <chr>,
## #   Surface <dbl>, material <chr>, mat <chr>, materialCat <chr>,
## #   quantity <dbl>, nfigures <dbl>, engraved <dbl>, original <dbl>,
…
